
<svg width="100px" height="37px" viewBox="0 0 100 37" version="1.1" xmlns="http://www.w3.org/2000/svg" xmlns:xlink="http://www.w3.org/1999/xlink">
    <!-- Generator: Sketch 46.2 (44496) - http://www.bohemiancoding.com/sketch -->
    <desc>Created with Sketch.</desc>
    <defs></defs>
    <g id="Page-1" stroke="none" stroke-width="1" fill="none" fill-rule="evenodd">
        <g id="mhs_logo">
            <path d="M86.4710027,33.8928538 C86.4710027,35.4582385 86.4766938,36.0917923 86.4837398,35.3008462 C86.4907859,34.5096154 86.4907859,33.2288462 86.4837398,32.4546923 C86.4766938,31.6802538 86.4710027,32.3274692 86.4710027,33.8928538 M45.9235772,36.7022923 C46.004336,36.7128231 46.1365854,36.7128231 46.2173442,36.7022923 C46.298103,36.6917615 46.2319783,36.6832231 46.0704607,36.6832231 C45.9089431,36.6832231 45.8428184,36.6917615 45.9235772,36.7022923" id="path0" fill="#000000"></path>
            <path d="M59.0552846,16.9821462 C59.0552846,20.3084462 59.0607046,21.6691923 59.0672087,20.0061846 C59.0739837,18.3428923 59.0739837,15.6211154 59.0672087,13.9581077 C59.0607046,12.2948154 59.0552846,13.6555615 59.0552846,16.9821462 M37.3227642,33.7980769 C37.3230352,33.9808 37.3311653,34.0496769 37.3409214,33.9512 C37.3506775,33.8527231 37.3506775,33.7033 37.3406504,33.6190538 C37.3306233,33.5348077 37.3227642,33.6153538 37.3227642,33.7980769 M6.51761518,34.6635923 C6.76124661,34.6721308 7.14742547,34.6721308 7.37588076,34.6635923 C7.60433604,34.6550538 7.40514905,34.6479385 6.93306233,34.6479385 C6.46124661,34.6479385 6.27425474,34.6550538 6.51761518,34.6635923" id="path1" fill="#555555"></path>
            <path d="M23.0352304,0.285753846 C22.3582656,0.3552 21.8853659,0.426069231 21.8138211,0.468761538 C21.7756098,0.491530769 21.6181572,0.525684615 21.4636856,0.544469231 C21.3094851,0.563253846 21.1731707,0.5957 21.1607046,0.616761538 C21.1482385,0.638107692 21.0365854,0.669984615 20.9124661,0.687915385 C20.7883469,0.705846154 20.6758808,0.738576923 20.6628726,0.760776923 C20.6498645,0.782692308 20.5482385,0.815138462 20.4371274,0.832784615 C20.3257453,0.850146154 20.2349593,0.881738462 20.2349593,0.902515385 C20.2349593,0.923292308 20.1536585,0.954884615 20.0544715,0.972530769 C19.9552846,0.989892308 19.8639566,1.02148462 19.8517615,1.04226154 C19.8392954,1.06332308 19.7579946,1.09434615 19.6707317,1.11142308 C19.5834688,1.12878462 19.5121951,1.16322308 19.5121951,1.18798462 C19.5121951,1.21303077 19.4796748,1.23323846 19.4401084,1.23323846 C19.400271,1.23323846 19.2934959,1.26824615 19.202981,1.31093846 C18.9092141,1.44897692 18.3200542,1.75579231 18.1346883,1.86707692 C18.0352304,1.92684615 17.8826558,2.01735385 17.795935,2.06858462 C17.3910569,2.30652308 16.7875339,2.75678462 16.4512195,3.07156923 C16.3886179,3.1302 16.3205962,3.1783 16.3,3.1783 C16.2322493,3.1783 14.7926829,4.71465385 14.5888889,5.00439231 C14.4788618,5.16093077 14.3525745,5.32743077 14.3084011,5.37382308 C14.2639566,5.4205 14.2276423,5.48766923 14.2276423,5.52296154 C14.2276423,5.55825385 14.197019,5.59952308 14.1598916,5.61460769 C14.1224932,5.62969231 14.0921409,5.67266923 14.0921409,5.71052308 C14.0921409,5.74837692 14.0769648,5.78651538 14.0582656,5.79505385 C14.0086721,5.81810769 13.8211382,6.10756154 13.8211382,6.16078462 C13.8211382,6.18583077 13.804878,6.21343846 13.7848238,6.22197692 C13.7368564,6.24303846 13.4146341,6.80572308 13.4146341,6.86862308 C13.4146341,6.89566154 13.397832,6.92497692 13.3772358,6.93351538 C13.3566396,6.94233846 13.2498645,7.10570769 13.1401084,7.29668462 C13.0303523,7.48766154 12.9051491,7.70112308 12.8617886,7.77113846 C12.8186992,7.84086923 12.7696477,7.92767692 12.7531165,7.96382308 C12.7363144,7.99968462 12.5940379,8.24530769 12.4365854,8.50914615 C12.2791328,8.77326923 12.1504065,9.01576154 12.1501355,9.04849231 C12.1501355,9.08093846 12.1344173,9.10769231 12.1151762,9.10769231 C12.095935,9.10769231 12.0303523,9.20360769 11.9693767,9.32115385 C11.9081301,9.43841538 11.8449864,9.53461538 11.8287263,9.53461538 C11.8124661,9.53461538 11.7878049,9.5719 11.7739837,9.61772308 C11.7436314,9.71847692 11.6065041,9.95840769 11.5289973,10.0463538 C11.497832,10.0816462 11.4723577,10.1411308 11.4723577,10.1784154 C11.4723577,10.2157 11.4569106,10.2461538 11.4379404,10.2461538 C11.403523,10.2461538 11.3712737,10.2993769 11.2487805,10.5580923 C11.2127371,10.6343692 11.1799458,10.7026769 11.1758808,10.7100769 C11.1718157,10.7174769 11.0596206,10.6480308 10.9262873,10.5561 C10.7929539,10.4638846 10.6582656,10.3884615 10.6265583,10.3884615 C10.5948509,10.3884615 10.5691057,10.3722385 10.5691057,10.3523154 C10.5691057,10.3158846 10.4707317,10.2527 10.2417344,10.1428385 C10.1734417,10.1098231 10.1173442,10.0662769 10.1173442,10.0460692 C10.1173442,10.0255769 10.0945799,10.0090692 10.0669377,10.0090692 C10.0195122,10.0090692 9.48915989,9.69058462 9.4398374,9.63252308 C9.38346883,9.56592308 9.11165312,9.44211538 9.07452575,9.46602308 C9.02195122,9.50017692 9.02059621,9.80528462 9.07317073,9.83943846 C9.09485095,9.85338462 9.12764228,10.3244231 9.14579946,10.8856846 C9.16395664,11.4472308 9.19457995,11.9063154 9.21355014,11.9063154 C9.23252033,11.9063154 9.26314363,12.3656846 9.28130081,12.9266615 C9.29945799,13.4879231 9.3303523,13.9572538 9.3495935,13.9697769 C9.36883469,13.9823 9.399729,14.4519154 9.41788618,15.0128923 C9.43604336,15.5741538 9.46639566,16.0332385 9.48509485,16.0332385 C9.50379404,16.0332385 9.53414634,16.4926077 9.55230352,17.0535846 C9.5704607,17.6148462 9.60352304,18.0856 9.62574526,18.1001154 C9.64769648,18.1143462 9.66585366,18.1994462 9.66585366,18.2893846 C9.66585366,18.4997154 9.72195122,18.4991462 10.1430894,18.2865385 C10.3238482,18.1951769 10.4934959,18.1206077 10.5203252,18.1206077 C10.5471545,18.1206077 10.5691057,18.0992615 10.5691057,18.0730769 C10.5691057,18.0468923 10.601626,18.0255462 10.6411924,18.0255462 C10.6807588,18.0255462 10.7672087,17.9950923 10.8330623,17.9580923 C10.9528455,17.8906385 11.3504065,17.6959615 11.7523035,17.5081154 C11.8688347,17.4534692 11.9856369,17.4090692 12.0119241,17.4090692 C12.0382114,17.4090692 12.0596206,17.3877231 12.0596206,17.3615385 C12.0596206,17.3353538 12.0850949,17.3134385 12.1159892,17.3125846 C12.1471545,17.3117308 12.2539295,17.2696077 12.3531165,17.2192308 C12.4525745,17.1688538 12.5593496,17.1267308 12.5902439,17.1258769 C12.6214092,17.1250231 12.6468835,17.1048154 12.6468835,17.0806231 C12.6468835,17.0567154 12.7078591,17.0228462 12.7823848,17.0057692 C12.8569106,16.9886923 12.9178862,16.9548231 12.9178862,16.9309154 C12.9178862,16.9067231 12.9498645,16.8870846 12.9891599,16.8870846 C13.0281843,16.8870846 13.2081301,16.8125154 13.3891599,16.7211538 C13.5699187,16.6297923 13.7322493,16.5552231 13.7498645,16.5552231 C13.7674797,16.5552231 13.9788618,16.4576 14.2192412,16.3386308 C14.4598916,16.2196615 14.7403794,16.0807692 14.8422764,16.0303923 C14.9444444,15.9797308 15.0512195,15.9384615 15.0794038,15.9384615 C15.1078591,15.9384615 15.1308943,15.9171154 15.1308943,15.8909308 C15.1308943,15.8650308 15.1563686,15.8428308 15.1875339,15.8419769 C15.2184282,15.8411231 15.3252033,15.799 15.4246612,15.7486231 C15.5238482,15.6982462 15.6306233,15.6564077 15.6617886,15.6555538 C15.6926829,15.6547 15.7181572,15.6325 15.7181572,15.6063154 C15.7181572,15.5804154 15.7395664,15.5590692 15.7658537,15.5590692 C15.8089431,15.5590692 15.9712737,15.4890538 16.3799458,15.2946615 C16.4582656,15.2573769 16.5444444,15.2269231 16.5718157,15.2269231 C16.599187,15.2269231 16.6214092,15.2072846 16.6214092,15.1833769 C16.6214092,15.1591846 16.6823848,15.1256 16.7569106,15.1082385 C16.8314363,15.0911615 16.8924119,15.0598538 16.8924119,15.0387923 C16.8924119,15.0174462 16.9636856,14.9864231 17.0506775,14.9690615 C17.1373984,14.9519846 17.2086721,14.9192538 17.2086721,14.8964846 C17.2086721,14.8737154 17.2696477,14.8409846 17.3441734,14.8236231 C17.5487805,14.7766615 17.4447154,14.4678538 17.2243902,14.4678538 C17.1907859,14.4678538 17.1634146,14.4479308 17.1634146,14.4237385 C17.1634146,14.3992615 17.1178862,14.3645385 17.0617886,14.3460385 C17.0059621,14.3278231 16.9501355,14.2996462 16.9376694,14.2837077 C16.902168,14.2378846 16.6523035,14.0853308 16.5650407,14.0563 C16.5216802,14.0417846 16.4859079,14.0110462 16.4859079,13.9879923 C16.4859079,13.9649385 16.4642276,13.9461538 16.4373984,13.9461538 C16.3780488,13.9461538 15.5449864,13.4278692 15.5108401,13.3698077 C15.49729,13.3470385 15.5588076,13.2030231 15.6474255,13.0499 C15.7360434,12.8967769 15.8084011,12.7493462 15.8084011,12.7223077 C15.8084011,12.6952692 15.8249322,12.6662385 15.8449864,12.6574154 C15.8780488,12.6431846 16.1241192,12.2287846 16.2371274,11.9976769 C16.2615176,11.9475846 16.297019,11.9063154 16.3159892,11.9063154 C16.3349593,11.9063154 16.3504065,11.8775692 16.3504065,11.8425615 C16.3504065,11.8072692 16.3910569,11.7292846 16.4409214,11.6692308 C16.4905149,11.6091769 16.5311653,11.5311923 16.5311653,11.4959 C16.5311653,11.4608923 16.5501355,11.4321462 16.5731707,11.4321462 C16.596477,11.4321462 16.6298103,11.3840462 16.6471545,11.3254154 C16.6644986,11.2665 16.6926829,11.2078692 16.7094851,11.1947769 C16.7607046,11.1549308 17.0731707,10.5928154 17.0731707,10.5404462 C17.0731707,10.5134077 17.0883469,10.4840923 17.1070461,10.4755538 C17.1531165,10.4539231 17.6151762,9.68147692 17.6151762,9.62626154 C17.6151762,9.60178462 17.6303523,9.58214615 17.6490515,9.58186154 C17.6677507,9.58186154 17.7422764,9.47000769 17.8146341,9.33282308 C17.8872629,9.19592308 18.0346883,8.95058462 18.1422764,8.78778462 C18.2498645,8.6247 18.3379404,8.47983077 18.3379404,8.4656 C18.3379404,8.45165385 18.4192412,8.35118462 18.5184282,8.24246154 C18.6178862,8.13373846 18.699187,8.02871538 18.699187,8.00879231 C18.699187,7.92397692 19.6365854,7.05533077 19.9617886,6.83845385 C20.0249322,6.79633077 20.0869919,6.74936923 20.099458,6.734 C20.1460705,6.67679231 20.6777778,6.35631538 20.7262873,6.35631538 C20.7542005,6.35631538 20.7769648,6.33667692 20.7769648,6.31276923 C20.7769648,6.28886154 20.8379404,6.25499231 20.9124661,6.23791538 C20.9869919,6.22055385 21.0479675,6.18924615 21.0479675,6.16818462 C21.0479675,6.14712308 21.1189702,6.11581538 21.2059621,6.09873846 C21.2929539,6.08137692 21.3639566,6.04893077 21.3639566,6.02644615 C21.3639566,6.00367692 21.4452575,5.97094615 21.5447154,5.9533 C21.6441734,5.93565385 21.7254743,5.90292308 21.7254743,5.88072308 C21.7254743,5.85852308 21.8170732,5.82607692 21.9292683,5.80843077 C22.0411924,5.79078462 22.1433604,5.75862308 22.1560976,5.73699231 C22.1688347,5.71536154 22.2753388,5.68376923 22.3926829,5.66669231 C22.5100271,5.6499 22.7281843,5.60293846 22.8772358,5.56280769 C23.2086721,5.47343846 24.8292683,5.46063077 25.1807588,5.54459231 C25.304878,5.57419231 25.5384824,5.62172308 25.7,5.6499 C25.8615176,5.67807692 26.0130081,5.72048462 26.0365854,5.74410769 C26.0601626,5.76773077 26.1211382,5.78793846 26.1720867,5.78879231 C26.2230352,5.78964615 26.3460705,5.83176923 26.4452575,5.88214615 C26.5447154,5.93252308 26.6718157,5.97436154 26.7276423,5.97521538 C26.7834688,5.97606923 26.8292683,5.99656154 26.8292683,6.02046923 C26.8292683,6.04466154 26.8902439,6.07824615 26.9647696,6.09560769 C27.0392954,6.11268462 27.100271,6.14399231 27.100271,6.16533846 C27.100271,6.1864 27.1509485,6.21713846 27.2130081,6.23336154 C27.3571816,6.2715 27.9504065,6.64548462 28.2864499,6.91017692 C28.4295393,7.02316923 28.5593496,7.11538462 28.5750678,7.11538462 C28.6333333,7.11538462 29.703794,8.28543846 29.8336043,8.49093077 C29.9075881,8.60847692 29.9837398,8.71150769 30.002168,8.72033077 C30.0208672,8.72886923 30.0360434,8.75647692 30.0360434,8.78152308 C30.0360434,8.82222308 30.202168,9.09488462 30.2634146,9.15522308 C30.3208672,9.21157692 30.7588076,10.1898 30.7588076,10.2618077 C30.7588076,10.3053538 30.7772358,10.3409308 30.8,10.3409308 C30.8227642,10.3409308 30.8550136,10.4263154 30.8718157,10.5304846 C30.8883469,10.6346538 30.9186992,10.7308538 30.9392954,10.7439462 C30.9596206,10.7573231 30.9902439,10.8748692 31.0073171,11.0052231 C31.0243902,11.1355769 31.0550136,11.2423077 31.0756098,11.2423077 C31.096206,11.2423077 31.1271003,11.3863231 31.1447154,11.5625 C31.1620596,11.7386769 31.198103,11.9111538 31.2246612,11.9461615 C31.2918699,12.0341077 31.2932249,14.0067769 31.2260163,14.0947231 C31.198645,14.1303 31.1620596,14.3033462 31.1447154,14.4792385 C31.1273713,14.6551308 31.096748,14.8096769 31.0766938,14.8227692 C31.0566396,14.8355769 31.0265583,14.9420231 31.0097561,15.0592846 C30.9932249,15.1762615 30.9626016,15.2829923 30.9420054,15.2963692 C30.9214092,15.3097462 30.8907859,15.3982615 30.8737127,15.4930385 C30.8569106,15.5878154 30.8246612,15.7002385 30.802439,15.7426462 C30.7254743,15.8895077 30.5780488,16.2654846 30.5780488,16.3152923 C30.5780488,16.3429 30.5598916,16.3653846 30.5379404,16.3653846 C30.5157182,16.3653846 30.4842818,16.4206 30.4682927,16.4880538 C30.4520325,16.5555077 30.4186992,16.6354846 30.3934959,16.6659385 C30.3685637,16.6963923 30.2308943,16.9132692 30.0872629,17.1480769 C29.7463415,17.7053538 28.9395664,18.6898385 28.8235772,18.6898385 C28.804878,18.6898385 28.7195122,18.7638385 28.6338753,18.8543462 C28.5479675,18.9448538 28.4542005,19.0194231 28.4252033,19.0202769 C28.396206,19.0211308 28.3655827,19.0384923 28.3574526,19.0589846 C28.3490515,19.0791923 28.2102981,19.1859231 28.0487805,19.2957846 C27.8872629,19.4056462 27.7346883,19.5118077 27.7097561,19.5314462 C27.6444444,19.5826769 27.1178862,19.8510692 26.8517615,19.9689 C26.7276423,20.0238308 26.5948509,20.0867308 26.5566396,20.1086462 C26.5184282,20.1305615 26.401626,20.1635769 26.297019,20.1823615 C26.1926829,20.2008615 26.095935,20.2347308 26.0823848,20.2577846 C26.0688347,20.2808385 25.9563686,20.3138538 25.8327913,20.3312154 C25.7089431,20.3482923 25.597832,20.3793154 25.5856369,20.4000923 C25.5734417,20.4208692 25.3807588,20.4527462 25.1574526,20.4712462 C24.9341463,20.4894615 24.7514905,20.5230462 24.7514905,20.5458154 C24.7514905,20.5685846 24.5482385,20.5870846 24.299458,20.5870846 L23.8474255,20.5870846 L23.8590786,23.1605769 L23.8707317,25.7340692 L24.6837398,25.7178462 C25.1306233,25.7090231 25.5067751,25.6856846 25.5192412,25.6657615 C25.5317073,25.6461231 25.7208672,25.6156692 25.9395664,25.5983077 C26.1579946,25.5812308 26.4528455,25.5365462 26.5943089,25.4995462 C26.7360434,25.4625462 26.9533875,25.4081846 27.0777778,25.3791538 C27.5897019,25.2593308 27.7121951,25.2237538 27.7528455,25.1833385 C27.7764228,25.16 27.8373984,25.1409308 27.8883469,25.1406462 C27.9392954,25.1406462 28.0392954,25.1084846 28.1102981,25.0694923 C28.1815718,25.0305 28.2628726,24.9986231 28.2910569,24.9983385 C28.3192412,24.9983385 28.397019,24.9681692 28.4634146,24.9317385 C28.5300813,24.8953077 28.6471545,24.8509077 28.7233062,24.8332615 C28.799458,24.8159 28.8617886,24.7817462 28.8617886,24.7578385 C28.8617886,24.7336462 28.896206,24.7140077 28.9382114,24.7140077 C29.0341463,24.7140077 29.8753388,24.2836692 30.2514905,24.0420308 C30.4070461,23.9421308 30.5463415,23.8601615 30.5604336,23.8601615 C30.5747967,23.8601615 30.6330623,23.8228769 30.6899729,23.7773385 C30.7468835,23.7315154 30.8390244,23.6623538 30.8945799,23.6230769 C30.9501355,23.5838 31.0195122,23.5280154 31.0487805,23.4989846 C31.0777778,23.4696692 31.1466125,23.4309615 31.201355,23.4127462 C31.2560976,23.3945308 31.300813,23.3632231 31.300813,23.3430154 C31.300813,23.3230923 31.4168022,23.2231923 31.5588076,23.1210154 C32.1382114,22.7037692 33.2485095,21.5365615 33.8186992,20.7456154 C33.9097561,20.6192462 34.000271,20.5088154 34.0200542,20.5002769 C34.0398374,20.4914538 34.0560976,20.4575846 34.0560976,20.4245692 C34.0560976,20.3915538 34.096748,20.3260923 34.1463415,20.2788462 C34.195935,20.2316 34.2365854,20.1661385 34.2365854,20.1331231 C34.2365854,20.1001077 34.2531165,20.0662385 34.2728997,20.0574154 C34.3227642,20.0357846 34.6430894,19.4728154 34.6430894,19.4070692 C34.6430894,19.3777538 34.6590786,19.3538462 34.6783198,19.3538462 C34.697832,19.3538462 34.7382114,19.2952154 34.7680217,19.2234923 C34.797832,19.1517692 34.8712737,19.0037692 34.9306233,18.8944769 C34.9902439,18.7851846 35.1143631,18.5076846 35.2065041,18.2777154 C35.298374,18.0477462 35.402439,17.7924462 35.4376694,17.7101923 C35.4726287,17.6279385 35.501355,17.5277538 35.501355,17.4876231 C35.501355,17.4474923 35.5197832,17.4025231 35.5425474,17.3877231 C35.5653117,17.3732077 35.597561,17.2758692 35.6143631,17.1714154 C35.6311653,17.0672462 35.6609756,16.9821462 35.6807588,16.9821462 C35.700813,16.9821462 35.7306233,16.8865154 35.7471545,16.7698231 C35.7639566,16.6528462 35.795393,16.5458308 35.8170732,16.5318846 C35.8387534,16.5176538 35.8704607,16.3887231 35.8872629,16.2455615 C35.904336,16.1021154 35.9346883,15.9740385 35.9547425,15.9609462 C35.9747967,15.9481385 36.0056911,15.7935923 36.0233062,15.6177 C36.0409214,15.4418077 36.0720867,15.2866923 36.0924119,15.2730308 C36.1127371,15.2590846 36.1436314,15.0183 36.1609756,14.7376692 C36.1783198,14.4570385 36.2097561,14.2162538 36.2308943,14.2025923 C36.2815718,14.1698615 36.2807588,11.9194077 36.2298103,11.8863923 C36.2084011,11.8724462 36.1761518,11.6256846 36.1582656,11.3382231 C36.1406504,11.0507615 36.1097561,10.8153846 36.0899729,10.8153846 C36.0701897,10.8153846 36.0395664,10.6551462 36.0222222,10.4596154 C36.004878,10.2638 35.9742547,10.1038462 35.9544715,10.1038462 C35.9344173,10.1038462 35.904336,9.98686923 35.8872629,9.84370769 C35.8701897,9.70054615 35.8398374,9.57275385 35.8195122,9.55966154 C35.799458,9.54656923 35.7691057,9.43955385 35.7523035,9.32172308 C35.7355014,9.20389231 35.704878,9.10769231 35.6842818,9.10769231 C35.6639566,9.10769231 35.6333333,9.01149231 35.6165312,8.89423077 C35.6,8.77668462 35.5693767,8.68076923 35.5487805,8.68076923 C35.5281843,8.68076923 35.49729,8.60079231 35.4796748,8.50288462 C35.4623306,8.40497692 35.4319783,8.30365385 35.4124661,8.27746923 C35.3929539,8.25156923 35.3620596,8.17671538 35.3439024,8.11153846 C35.2520325,7.78166923 34.499729,6.26182308 34.4084011,6.22197692 C34.3886179,6.21343846 34.3720867,6.18583077 34.3720867,6.16078462 C34.3720867,6.10756154 34.1845528,5.81810769 34.1349593,5.79505385 C34.1165312,5.78651538 34.101084,5.74837692 34.101084,5.71052308 C34.101084,5.67266923 34.0707317,5.62969231 34.0333333,5.61460769 C33.996206,5.59952308 33.9655827,5.5685 33.9655827,5.54544615 C33.9655827,5.5056 33.7165312,5.14442308 33.5937669,5.0061 C33.5623306,4.97052308 33.4864499,4.87033846 33.4254743,4.78324615 C33.2777778,4.5732 31.896206,3.13076923 31.8425474,3.13076923 C31.8195122,3.13076923 31.7401084,3.07213846 31.6661247,3.00041538 C31.4073171,2.74938462 30.7336043,2.26496923 30.1490515,1.9092 C29.804065,1.69943846 29.1550136,1.37696923 29.0764228,1.37611538 C29.0327913,1.37583077 28.99729,1.3542 28.99729,1.3283 C28.99729,1.30211538 28.9758808,1.28076923 28.9495935,1.28076923 C28.902168,1.28076923 28.5441734,1.12622308 28.404336,1.04510769 C28.3639566,1.02176923 28.2571816,0.988184615 28.1672087,0.970538462 C28.0772358,0.952607692 28.003523,0.920446154 28.003523,0.898815385 C28.003523,0.877184615 27.9119241,0.845307692 27.799729,0.827661538 C27.6878049,0.810015385 27.5856369,0.778138462 27.5731707,0.756792308 C27.5607046,0.735446154 27.4390244,0.703569231 27.30271,0.685638462 C27.1666667,0.667707692 27.0550136,0.636115385 27.0550136,0.615053846 C27.0550136,0.593992308 26.9230352,0.561830769 26.7615176,0.5439 C26.6,0.525684615 26.4680217,0.494092308 26.4680217,0.473884615 C26.4680217,0.453676923 26.2799458,0.4218 26.0501355,0.403015385 C25.8203252,0.384230769 25.6094851,0.349792308 25.5818428,0.326169231 C25.5132791,0.268107692 23.5154472,0.236515385 23.0352304,0.285753846 M10.7609756,0.6993 C10.6056911,0.708407692 10.4788618,0.733738462 10.4788618,0.755084615 C10.4788618,0.776715385 10.295935,0.809161538 10.0723577,0.827661538 C9.84878049,0.845876923 9.66585366,0.878323077 9.66585366,0.899384615 C9.66585366,0.920446154 9.54878049,0.952892308 9.40596206,0.971676923 C9.26314363,0.990176923 9.12601626,1.02205385 9.10108401,1.04283077 C9.07642276,1.06332308 8.96449864,1.09576923 8.85284553,1.11483846 C8.74092141,1.13362308 8.62926829,1.16578462 8.60433604,1.18570769 C8.57940379,1.20591538 8.48861789,1.23836154 8.40243902,1.25771538 C8.31653117,1.27706923 8.21490515,1.3098 8.17669377,1.33029231 C8.13875339,1.35106923 7.97533875,1.41596154 7.81382114,1.47459231 C7.399729,1.62515385 6.3102981,2.146 6.23306233,2.23053077 C6.22059621,2.24390769 6.1596206,2.28119231 6.09756098,2.31306923 C5.95880759,2.38422308 5.81165312,2.48042308 5.78130081,2.5197 C5.76883469,2.53563846 5.71300813,2.56381538 5.65718157,2.58203077 C5.60135501,2.60024615 5.55555556,2.63525385 5.55555556,2.65973077 C5.55555556,2.68392308 5.52439024,2.70384615 5.48644986,2.70384615 C5.44823848,2.70384615 5.40542005,2.73572308 5.39132791,2.775 C5.37696477,2.81427692 5.3401084,2.84615385 5.30921409,2.84615385 C5.27831978,2.84615385 5.20433604,2.88856154 5.14471545,2.94007692 C4.98699187,3.07669231 4.95799458,3.09946154 4.83279133,3.18484615 C4.77073171,3.22753846 4.66910569,3.30666154 4.60704607,3.36102308 C4.54498645,3.4151 4.42574526,3.51898462 4.34200542,3.59156154 C4.1195122,3.78481538 3.43658537,4.46020769 3.30108401,4.62158462 C3.23685637,4.69786154 3.14878049,4.79918462 3.10514905,4.847 C3.06178862,4.89453077 3.02628726,4.9432 3.02628726,4.95543846 C3.02628726,4.96767692 2.9601626,5.0505 2.87940379,5.1393 C2.66612466,5.37439231 2.54498645,5.53206923 2.33360434,5.8497 C1.98319783,6.37566923 1.62601626,6.98901538 1.62601626,7.06443846 C1.62601626,7.09233077 1.60596206,7.11538462 1.58184282,7.11538462 C1.55745257,7.11538462 1.52466125,7.16889231 1.50894309,7.23406923 C1.49349593,7.29924615 1.46422764,7.35246923 1.44417344,7.35246923 C1.42384824,7.35246923 1.39403794,7.41650769 1.37750678,7.49477692 C1.36124661,7.57304615 1.33062331,7.63708462 1.3097561,7.63708462 C1.28888889,7.63708462 1.25853659,7.70112308 1.24200542,7.77939231 C1.22574526,7.85766154 1.19457995,7.9217 1.17289973,7.9217 C1.15094851,7.9217 1.1200542,7.99655385 1.10352304,8.08791538 C1.08726287,8.17899231 1.05582656,8.25384615 1.03387534,8.25384615 C1.01165312,8.25384615 0.993495935,8.2806 0.993495935,8.31304615 C0.993224932,8.34577692 0.963414634,8.43201538 0.927371274,8.50487692 C0.891056911,8.57773846 0.848238482,8.71122308 0.832249322,8.80144615 C0.816260163,8.89166923 0.785094851,8.96538462 0.763414634,8.96538462 C0.741463415,8.96538462 0.710569106,9.05133846 0.694579946,9.15607692 C0.678590786,9.2611 0.649051491,9.35758462 0.62899729,9.37067692 C0.608943089,9.38376923 0.578861789,9.49021538 0.562059621,9.60690769 C0.545528455,9.7236 0.515718157,9.81923077 0.496205962,9.81923077 C0.476693767,9.81923077 0.446341463,9.94730769 0.42899729,10.1038462 C0.411653117,10.2603846 0.381300813,10.3884615 0.361246612,10.3884615 C0.341463415,10.3884615 0.310569106,10.5219462 0.29295393,10.6850308 C0.275338753,10.8481154 0.244173442,11.0035154 0.223577236,11.0302692 C0.20298103,11.0570231 0.171815718,11.2978077 0.154200542,11.5653462 C0.136856369,11.8328846 0.105149051,12.0628538 0.0837398374,12.0768 C0.0333333333,12.1092462 0.0333333333,14.5967846 0.0834688347,14.6295154 C0.104607046,14.6431769 0.135772358,14.8620462 0.152845528,15.1156385 C0.169918699,15.3692308 0.200813008,15.5994846 0.22195122,15.6270923 C0.242818428,15.6549846 0.274254743,15.8217692 0.291598916,15.9976615 C0.309214092,16.1738385 0.339837398,16.3178538 0.359620596,16.3178538 C0.379674797,16.3178538 0.4100271,16.4351154 0.427100271,16.5779923 C0.444173442,16.7211538 0.474525745,16.8489462 0.494850949,16.8620385 C0.514905149,16.8751308 0.545257453,16.9824308 0.562059621,17.0999769 C0.578861789,17.2178077 0.609485095,17.3140077 0.630081301,17.3140077 C0.650406504,17.3140077 0.68102981,17.4102077 0.697831978,17.5274692 C0.714363144,17.6450154 0.747154472,17.7409308 0.770731707,17.7409308 C0.79403794,17.7409308 0.81300813,17.7785 0.813279133,17.8240385 C0.813550136,17.8695769 0.84200542,17.9643538 0.876693767,18.0343692 C0.911653117,18.1043846 0.953658537,18.2270538 0.970460705,18.3070308 C0.987262873,18.3870077 1.0195122,18.4524692 1.04254743,18.4524692 C1.06531165,18.4524692 1.08401084,18.4846308 1.08401084,18.5239077 C1.08401084,18.5631846 1.12466125,18.6747538 1.17425474,18.7720923 C1.22411924,18.8697154 1.26476965,18.9761615 1.26476965,19.0091769 C1.26476965,19.0421923 1.28292683,19.0692308 1.30487805,19.0692308 C1.32710027,19.0692308 1.35907859,19.1275769 1.37615176,19.1993 C1.39349593,19.2707385 1.42086721,19.3401846 1.43766938,19.3532769 C1.45420054,19.3666538 1.51869919,19.4842 1.58075881,19.6148385 C1.64308943,19.7451923 1.70596206,19.8624538 1.72086721,19.8755462 C1.73577236,19.8886385 1.77452575,19.9526769 1.80704607,20.0178538 C1.87804878,20.1604462 2.26639566,20.7908692 2.30379404,20.8244538 C2.31842818,20.8372615 2.3799458,20.9226462 2.44065041,21.0140077 C2.55284553,21.1833538 2.67886179,21.349 2.800271,21.4867538 C2.83766938,21.5288769 2.94850949,21.6677692 3.04688347,21.7949923 C3.33306233,22.1655615 4.11869919,22.9647615 4.48536585,23.2582 C4.60460705,23.3535462 4.72926829,23.4588538 4.76205962,23.4918692 C4.79485095,23.5248846 4.86747967,23.5838 4.92330623,23.6230769 C4.97886179,23.6623538 5.05121951,23.7209846 5.08373984,23.7534308 C5.11598916,23.7861615 5.15501355,23.8129154 5.1701897,23.8129154 C5.20921409,23.8129154 5.48482385,24.0189769 5.50298103,24.0619538 C5.51111111,24.0813077 5.53468835,24.0975308 5.55528455,24.0975308 C5.57588076,24.0975308 5.70081301,24.1721 5.83279133,24.2634615 C5.96476965,24.3548231 6.09891599,24.4293923 6.1303523,24.4293923 C6.16205962,24.4293923 6.18780488,24.4459 6.18780488,24.4655385 C6.18780488,24.5051 6.18482385,24.5033923 6.76124661,24.8005308 C6.9799458,24.9132385 7.19349593,25.0248077 7.23577236,25.0484308 C7.38753388,25.1335308 8.11842818,25.4255462 8.1802168,25.4258308 C8.21463415,25.4261154 8.29728997,25.456 8.36341463,25.4921462 C8.4298103,25.5285769 8.56693767,25.5729769 8.66829268,25.5909077 C8.76937669,25.6088385 8.86287263,25.6415692 8.87588076,25.6637692 C8.88888889,25.6856846 9.01111111,25.7184154 9.14769648,25.7360615 C9.28428184,25.7539923 9.40623306,25.7864385 9.41897019,25.8077846 C9.43170732,25.8294154 9.58373984,25.8615769 9.75718157,25.8795077 C9.9303523,25.8977231 10.0723577,25.9287462 10.0723577,25.9489538 C10.0723577,25.9691615 10.2907859,25.9993308 10.5577236,26.0161231 C10.8249322,26.0329154 11.0785908,26.0667846 11.1216802,26.0918308 C11.2189702,26.1479 13.2195122,26.1527385 13.2523035,26.0969538 C13.2653117,26.0747538 13.4943089,26.0417385 13.7609756,26.0235231 C14.0276423,26.0055923 14.2672087,25.9728615 14.2932249,25.9509462 C14.3192412,25.9293154 14.4775068,25.8965846 14.6449864,25.8783692 C14.8124661,25.8601538 14.9593496,25.8279923 14.9718157,25.8069308 C14.9842818,25.7858692 15.1059621,25.7539923 15.2425474,25.7360615 C15.3791328,25.7184154 15.501355,25.6856846 15.5143631,25.6637692 C15.5273713,25.6415692 15.6208672,25.6088385 15.7219512,25.5909077 C15.8233062,25.5729769 15.9604336,25.5285769 16.0268293,25.4921462 C16.0929539,25.456 16.1821138,25.4261154 16.2246612,25.4258308 C16.2674797,25.4258308 16.3691057,25.3953769 16.4506775,25.3583769 C16.5322493,25.3213769 16.7726287,25.2157846 16.9850949,25.1238538 C17.4718157,24.9126692 18.4089431,24.4123154 18.4734417,24.3292077 C18.4856369,24.3129846 18.5417344,24.2850923 18.597561,24.2665923 C18.6533875,24.2483769 18.699187,24.2133692 18.699187,24.1891769 C18.699187,24.1647 18.7303523,24.1447769 18.7682927,24.1447769 C18.8065041,24.1447769 18.8485095,24.1148923 18.8620596,24.0778923 C18.8753388,24.0411769 18.9357724,23.9982 18.995935,23.9822615 C19.0563686,23.9663231 19.1056911,23.9324538 19.1056911,23.9068385 C19.1056911,23.8812231 19.1368564,23.8601615 19.1747967,23.8601615 C19.2130081,23.8601615 19.2558266,23.8282846 19.2699187,23.7890077 C19.2842818,23.7500154 19.3140921,23.7178538 19.3360434,23.7178538 C19.3867209,23.7178538 19.800813,23.3891231 19.8208672,23.3330538 C19.8289973,23.31 19.8563686,23.2909308 19.8813008,23.2909308 C20.0138211,23.2909308 21.5550136,21.6942385 21.6287263,21.4807769 C21.6376694,21.4548769 21.698645,21.3726231 21.7642276,21.2977692 C21.9406504,21.0962615 21.9552846,21.0757692 22.3059621,20.5361385 C22.4834688,20.2626231 22.6287263,20.0130154 22.6287263,19.9811385 C22.6287263,19.9492615 22.6490515,19.9230769 22.6739837,19.9230769 C22.698645,19.9230769 22.7189702,19.8943308 22.7189702,19.8593231 C22.7189702,19.8240308 22.7596206,19.7460462 22.8094851,19.6859923 C22.8590786,19.6256538 22.899729,19.5476692 22.899729,19.5126615 C22.899729,19.4773692 22.9186992,19.4486231 22.9417344,19.4486231 C22.9650407,19.4486231 22.998374,19.4008077 23.0157182,19.3418923 C23.0330623,19.2832615 23.0612466,19.2246308 23.0780488,19.2115385 C23.095122,19.1984462 23.2181572,18.9958 23.3514905,18.7609923 C23.4848238,18.5261846 23.6078591,18.3232538 23.6246612,18.3101615 C23.6414634,18.2970692 23.6696477,18.2384385 23.6869919,18.1798077 C23.704607,18.1211769 23.7330623,18.0730769 23.7506775,18.0730769 C23.7680217,18.0730769 23.8327913,17.9717538 23.8943089,17.8476615 C23.9558266,17.7238538 24.0176152,17.6117154 24.0317073,17.5986231 C24.0869919,17.5471077 24.3902439,16.9901154 24.3902439,16.9403077 C24.3902439,16.9109923 24.4111111,16.8870846 24.4365854,16.8870846 C24.4620596,16.8870846 24.503252,16.8392692 24.5279133,16.7803538 C24.5528455,16.7217231 24.6230352,16.5882385 24.6837398,16.4840692 C24.7447154,16.3796154 24.8075881,16.2569462 24.8235772,16.2111231 C24.8392954,16.1655846 24.8704607,16.1283 24.8924119,16.1283 C24.9143631,16.1283 24.9322493,16.1061 24.9322493,16.0787769 C24.9322493,16.0517385 24.9777778,15.9609462 25.0336043,15.8772692 C25.0894309,15.7935923 25.1384824,15.7178846 25.1425474,15.7093462 C25.1533875,15.6874308 25.6628726,15.9848538 25.7487805,16.0631231 C25.7880759,16.0989846 25.8317073,16.1283 25.8457995,16.1283 C25.8596206,16.1283 26.0945799,16.2669077 26.3674797,16.4365385 C26.6403794,16.6061692 26.8848238,16.7447769 26.9105691,16.7447769 C26.9363144,16.7447769 26.9639566,16.7658385 26.9723577,16.7911692 C27.000542,16.8779769 27.2810298,16.9084308 27.2810298,16.8247538 C27.2810298,16.7837692 27.2628726,16.7388 27.2409214,16.7242846 C27.2186992,16.7100538 27.1856369,16.2393 27.1674797,15.6780385 C27.1493225,15.1167769 27.1189702,14.6576923 27.100271,14.6576923 C27.0815718,14.6576923 27.0512195,14.1988923 27.0330623,13.6379154 C27.0149051,13.0769385 26.9856369,12.6178538 26.9685637,12.6178538 C26.9512195,12.6178538 26.9111111,12.0150385 26.8799458,11.2778846 C26.8485095,10.5407308 26.8051491,9.83118462 26.7834688,9.70054615 C26.7620596,9.57019231 26.7430894,9.30350769 26.7414634,9.10769231 C26.7322493,8.02074615 26.6772358,7.8366 26.4056911,7.98260769 C26.3281843,8.02416154 26.1428184,8.11495385 25.9937669,8.18411538 C25.8447154,8.25356154 25.6211382,8.35972308 25.496748,8.42006154 C25.0311653,8.64604615 24.8455285,8.7283 24.799187,8.7283 C24.7728997,8.7283 24.7514905,8.74793846 24.7514905,8.77184615 C24.7514905,8.79575385 24.6905149,8.82962308 24.6159892,8.8467 C24.5414634,8.86406154 24.4804878,8.89764615 24.4804878,8.92183846 C24.4804878,8.94574615 24.4466125,8.96538462 24.4051491,8.96538462 C24.3636856,8.96538462 24.2059621,9.02686154 24.0550136,9.10228462 C23.2604336,9.49846923 23.0831978,9.58214615 23.0387534,9.58214615 C23.0119241,9.58214615 22.9899729,9.60349231 22.9899729,9.62939231 C22.9899729,9.65557692 22.9596206,9.67692308 22.9222222,9.67692308 C22.8848238,9.67692308 22.7783198,9.71961538 22.6856369,9.7717 C22.5929539,9.82406923 22.4913279,9.86676154 22.4598916,9.86676154 C22.4287263,9.86676154 22.402981,9.8864 22.402981,9.91030769 C22.402981,9.93421538 22.3420054,9.96808462 22.2674797,9.98516154 C22.1929539,10.0025231 22.1319783,10.0361077 22.1319783,10.0603 C22.1319783,10.0842077 22.099187,10.1038462 22.0588076,10.1038462 C22.0186992,10.1038462 21.8341463,10.1784154 21.6485095,10.2697769 C21.4626016,10.3611385 21.302439,10.4359923 21.2924119,10.4359923 C21.2734417,10.4359923 20.9168022,10.6067615 20.3401084,10.8922308 C20.1617886,10.9804615 19.9943089,11.0524692 19.9674797,11.0524692 C19.9406504,11.0524692 19.9186992,11.0738154 19.9186992,11.1 C19.9186992,11.1261846 19.8891599,11.1475308 19.8528455,11.1475308 C19.8165312,11.1475308 19.7200542,11.1814 19.6382114,11.2232385 C18.6840108,11.7096462 18.6902439,11.7028154 19.0154472,11.8912308 C19.1271003,11.9558385 19.3542005,12.0924538 19.5200542,12.1949154 C19.6859079,12.2970923 19.8433604,12.3807692 19.8701897,12.3807692 C19.896748,12.3807692 19.9186992,12.3972769 19.9186992,12.4172 C19.9186992,12.4374077 20.0149051,12.5068538 20.1325203,12.5714615 C20.2498645,12.6360692 20.3734417,12.7157615 20.4067751,12.7484923 C20.4398374,12.7809385 20.496206,12.8076923 20.5317073,12.8076923 C20.5672087,12.8076923 20.596206,12.8290385 20.596206,12.8552231 C20.596206,12.8811231 20.6241192,12.9024692 20.6585366,12.9024692 C20.8165312,12.9024692 20.8344173,13.1942 20.6848238,13.3293923 C20.6330623,13.3760692 20.3252033,13.9356231 20.3252033,13.9828692 C20.3252033,14.0093385 20.2948509,14.0432077 20.2574526,14.0582923 C20.2200542,14.0730923 20.1897019,14.1180615 20.1897019,14.1581923 C20.1897019,14.1980385 20.1696477,14.2307692 20.1455285,14.2307692 C20.1211382,14.2307692 20.0883469,14.2839923 20.0726287,14.3494538 C20.0571816,14.4146308 20.0287263,14.4678538 20.0094851,14.4678538 C19.9902439,14.4678538 19.9631436,14.5054231 19.9493225,14.5509615 C19.9233062,14.6372 19.7794038,14.9007538 19.7357724,14.9423077 C19.7119241,14.9650769 18.9829268,16.2125462 18.8487805,16.4601615 C18.8132791,16.5256231 18.7452575,16.6428846 18.697019,16.7211538 C18.6490515,16.7994231 18.5845528,16.9169692 18.5533875,16.9821462 C18.5224932,17.0473231 18.4764228,17.1236 18.4512195,17.1514923 C18.4262873,17.1796692 18.3653117,17.2809923 18.3162602,17.3769077 C18.2672087,17.4728231 18.2113821,17.5513769 18.1921409,17.5513769 C18.1728997,17.5513769 18.1571816,17.5801231 18.1571816,17.6151308 C18.1571816,17.6501385 18.1165312,17.7175923 18.0669377,17.7648385 C18.0170732,17.8120846 17.9764228,17.8678692 17.9764228,17.8886462 C17.9764228,17.9532538 17.0178862,19.0100308 16.7813008,19.2064154 C16.4802168,19.4565923 16.298645,19.5909308 16.2620596,19.5909308 C16.2387534,19.5909308 16.203252,19.6176846 16.1834688,19.6504154 C16.1403794,19.721 15.8300813,19.9051462 15.3341463,20.1547538 C14.7696477,20.4388 14.6482385,20.4923077 14.5707317,20.4923077 C14.5311653,20.4923077 14.498645,20.5108077 14.498645,20.5335769 C14.498645,20.5563462 14.397832,20.5890769 14.2747967,20.6061538 C14.1514905,20.6232308 14.0398374,20.6559615 14.0262873,20.6787308 C14.0130081,20.7015 13.8747967,20.7353692 13.7195122,20.7541538 C13.5642276,20.7729385 13.4227642,20.8125 13.404878,20.8418154 C13.3596206,20.9175231 11.1504065,20.9169538 11.0615176,20.8415308 C11.0268293,20.8119308 10.8712737,20.7723692 10.7159892,20.7538692 C10.5607046,20.7353692 10.4336043,20.7037769 10.4336043,20.6835692 C10.4336043,20.6633615 10.3327913,20.6329077 10.2097561,20.6155462 C10.0864499,20.5984692 9.97344173,20.5637462 9.95853659,20.5384154 C9.94363144,20.5130846 9.90108401,20.4923077 9.86395664,20.4923077 C9.7902439,20.4923077 9.53685637,20.3801692 9.07859079,20.1453615 C8.81924119,20.0124462 8.700271,19.9412923 8.33333333,19.6993692 C8.28373984,19.6666385 8.20731707,19.6265077 8.16395664,19.61 C8.12059621,19.5934923 8.08482385,19.5616154 8.08482385,19.5394154 C8.08482385,19.5169308 8.02710027,19.4671231 7.95663957,19.4289846 C7.88617886,19.3905615 7.77940379,19.3051769 7.7195122,19.2388615 C7.6596206,19.1725462 7.59674797,19.1179 7.57940379,19.1176154 C7.5195122,19.1159077 6.81084011,18.3414692 6.58509485,18.0309538 C6.4598916,17.8584769 6.33929539,17.7101923 6.31761518,17.7013692 C6.29593496,17.6928308 6.27831978,17.6680692 6.27831978,17.6464385 C6.27831978,17.6248077 6.20704607,17.4936 6.1200542,17.3549923 C6.03306233,17.2163846 5.96205962,17.0774923 5.96205962,17.0464692 C5.96205962,17.0154462 5.94688347,16.9827154 5.92818428,16.9741769 C5.88509485,16.9539692 5.69105691,16.539 5.69105691,16.4669923 C5.69105691,16.4371077 5.67479675,16.4129154 5.65528455,16.4129154 C5.63550136,16.4129154 5.59647696,16.3326538 5.56829268,16.2350308 C5.49376694,15.9746077 5.37235772,15.5969231 5.32818428,15.4879154 C5.13739837,15.0160231 4.93495935,12.9935462 5.05311653,12.7388154 C5.07804878,12.6853077 5.11138211,12.4550538 5.12764228,12.2267923 C5.14390244,11.9985308 5.17371274,11.8010077 5.19403794,11.7879154 C5.21436314,11.7748231 5.24552846,11.6527231 5.26341463,11.5169615 C5.28102981,11.3809154 5.31300813,11.2369 5.33414634,11.1967692 C5.35528455,11.1566385 5.42520325,10.9582615 5.48943089,10.7559 C5.55365854,10.5535385 5.63550136,10.3292615 5.67100271,10.2578231 C5.70650407,10.1861 5.73577236,10.101 5.73604336,10.0682692 C5.73604336,10.0355385 5.75447154,10.0090692 5.77642276,10.0090692 C5.79864499,10.0090692 5.83062331,9.95043846 5.84769648,9.879 C5.86504065,9.80756154 5.89430894,9.73811538 5.91300813,9.72473846 C5.93170732,9.71164615 6.03143631,9.55112308 6.13441734,9.36868462 C6.23739837,9.18596154 6.37262873,8.9725 6.43468835,8.89423077 C6.49674797,8.81596154 6.56341463,8.73057692 6.58292683,8.70439231 C6.95528455,8.20603077 7.0295393,8.12406154 7.53739837,7.65017692 C7.78726287,7.41707692 8.37235772,6.97307692 8.4295393,6.97307692 C8.44715447,6.97307692 8.49376694,6.94290769 8.53306233,6.90590769 C8.62737127,6.81710769 9.22113821,6.49919231 9.29322493,6.49890769 C9.32411924,6.49890769 9.3495935,6.47841538 9.3495935,6.45336923 C9.3495935,6.42860769 9.42086721,6.39416923 9.50813008,6.37680769 C9.59539295,6.35973077 9.67669377,6.32870769 9.68915989,6.30764615 C9.70135501,6.28686923 9.79241192,6.25527692 9.89159892,6.23791538 C9.99078591,6.22026923 10.0821138,6.18810769 10.0948509,6.16676154 C10.1075881,6.14513077 10.204065,6.1124 10.3097561,6.09418462 C10.4151762,6.07596923 10.5233062,6.04266923 10.5498645,6.02018462 C10.5766938,5.9977 10.7441734,5.96496923 10.9224932,5.94760769 C11.100813,5.92996154 11.2466125,5.90036154 11.2466125,5.88129231 C11.2466125,5.86222308 11.5311653,5.83148462 11.8788618,5.8127 L12.5113821,5.77826154 L12.5113821,3.22127692 L12.5113821,0.664007692 L11.7772358,0.673115385 C11.3737127,0.678238462 10.9162602,0.689907692 10.7609756,0.6993" id="path2" fill="#EB2027"></path>
            <path d="M15.400813,4.02019231 L15.1084011,4.34038462 L15.4132791,4.03328462 C15.696477,3.74838462 15.7387534,3.7 15.7056911,3.7 C15.698645,3.7 15.5615176,3.84401538 15.400813,4.02019231 M32.7913279,4.05576923 C32.9514905,4.2254 33.0924119,4.36400769 33.104878,4.36400769 C33.1173442,4.36400769 32.996477,4.2254 32.8365854,4.05576923 C32.6764228,3.88613846 32.5352304,3.74753077 32.5230352,3.74753077 C32.5105691,3.74753077 32.6311653,3.88613846 32.7913279,4.05576923 M26.795393,9.70054615 C26.795935,9.805 26.8051491,9.842 26.8159892,9.78308462 C26.8268293,9.72416923 26.8265583,9.63878462 26.8151762,9.59324615 C26.803794,9.54799231 26.795122,9.59637692 26.795393,9.70054615 M26.9319783,11.8590692 C26.9319783,11.9763308 26.9406504,12.0244308 26.9514905,11.9658 C26.9623306,11.9068846 26.9623306,11.8109692 26.9514905,11.7523385 C26.9406504,11.6934231 26.9319783,11.7415231 26.9319783,11.8590692 M26.9336043,12.3571462 C26.9338753,12.5136846 26.9422764,12.5720308 26.9523035,12.4866462 C26.9623306,12.4012615 26.9620596,12.2731846 26.9517615,12.2020308 C26.9414634,12.1308769 26.9333333,12.2006077 26.9336043,12.3571462 M25.5758808,25.6481154 C25.6192412,25.6600692 25.6905149,25.6600692 25.7338753,25.6481154 C25.7775068,25.6361615 25.7417344,25.6264846 25.6550136,25.6264846 C25.5680217,25.6264846 25.5325203,25.6361615 25.5758808,25.6481154" id="path3" fill="#FF0000"></path>
            <path d="M92.2336043,2.3088 C92.0235772,2.31961538 91.8306233,2.34665385 91.804336,2.36856923 C91.7783198,2.39076923 91.5691057,2.42406923 91.3392954,2.44285385 C91.1094851,2.46135385 90.9214092,2.49266154 90.9214092,2.5123 C90.9214092,2.53193846 90.796477,2.56182308 90.6436314,2.57861538 C90.4910569,2.59540769 90.3436314,2.62785385 90.3162602,2.65090769 C90.2888889,2.67396154 90.195393,2.7084 90.1084011,2.72746923 C90.0214092,2.74653846 89.9300813,2.7787 89.9051491,2.79862308 C89.8802168,2.81883077 89.7918699,2.85042308 89.7084011,2.86920769 C89.6249322,2.88799231 89.4623306,2.95174615 89.3471545,3.01066154 C89.2317073,3.06957692 89.0864499,3.14215385 89.0243902,3.17146923 C88.8943089,3.23294615 88.7411924,3.33085385 88.7081301,3.37354615 C88.695664,3.38948462 88.6398374,3.41766154 88.5840108,3.43587692 C88.5281843,3.45409231 88.4823848,3.4891 88.4823848,3.51357692 C88.4823848,3.53776923 88.4628726,3.55769231 88.4392954,3.55769231 C88.2834688,3.55769231 87.3742547,4.40015385 87.1417344,4.76019231 C87.0718157,4.86834615 86.9688347,5.01008462 86.9127371,5.07526154 C86.8569106,5.14015385 86.8111111,5.21216154 86.8111111,5.23493077 C86.8111111,5.25798462 86.7422764,5.39687692 86.6579946,5.54373846 C86.5737127,5.6906 86.4672087,5.92284615 86.4214092,6.06003077 C86.3758808,6.19693077 86.3241192,6.30906923 86.3065041,6.30906923 C86.2891599,6.30906923 86.2607046,6.41039231 86.2436314,6.5342 C86.2265583,6.65829231 86.1943089,6.78380769 86.1718157,6.81340769 C86.1495935,6.84300769 86.1186992,7.00836923 86.103252,7.18113077 C86.0880759,7.35360769 86.0579946,7.49477692 86.0368564,7.49477692 C85.9864499,7.49477692 85.9861789,8.85723077 86.0365854,8.88996154 C86.0579946,8.90362308 86.0878049,9.05674615 86.103252,9.23007692 C86.1186992,9.40369231 86.1498645,9.56962308 86.1726287,9.59950769 C86.195122,9.62910769 86.2281843,9.74380769 86.2455285,9.85480769 C86.2628726,9.96580769 86.2937669,10.0563154 86.3143631,10.0563154 C86.3349593,10.0563154 86.3653117,10.1417 86.3821138,10.2461538 C86.398916,10.3506077 86.4295393,10.4359923 86.4501355,10.4359923 C86.4710027,10.4359923 86.501355,10.5000308 86.5176152,10.5783 C86.5338753,10.6565692 86.5615176,10.7206077 86.5791328,10.7206077 C86.596477,10.7206077 86.6346883,10.7792385 86.6642276,10.8509615 C86.7734417,11.1182154 87.1902439,11.6985462 87.4902439,12.0013769 C87.7669377,12.2808692 88.0425474,12.5230769 88.0837398,12.5230769 C88.101626,12.5230769 88.1718157,12.5768692 88.2392954,12.6429 C88.3070461,12.7086462 88.4097561,12.7749615 88.4674797,12.7903308 C88.5254743,12.8054154 88.5726287,12.8321692 88.5726287,12.8495308 C88.5726287,12.8666077 88.6693767,12.9337769 88.7872629,12.9983846 C88.9051491,13.0629923 89.0121951,13.1304462 89.0249322,13.1478077 C89.0373984,13.1654538 89.103523,13.1942 89.1715447,13.2124154 C89.2398374,13.2303462 89.295393,13.2622231 89.295393,13.2832846 C89.295393,13.3046308 89.3563686,13.3359385 89.4308943,13.3533 C89.5054201,13.3703769 89.5663957,13.4042462 89.5663957,13.4281538 C89.5663957,13.4520615 89.5894309,13.4717 89.6173442,13.4717 C89.6452575,13.4717 89.7926829,13.5337462 89.9447154,13.6097385 C90.6257453,13.9495692 90.9295393,14.0884615 90.9907859,14.0884615 C91.0271003,14.0884615 91.0569106,14.1098077 91.0569106,14.1359923 C91.0569106,14.1618923 91.0758808,14.1832385 91.099187,14.1832385 C91.1224932,14.1832385 91.1883469,14.2020231 91.2457995,14.2250769 C91.303523,14.2481308 91.3685637,14.2674846 91.3905149,14.2683385 C91.4127371,14.2694769 91.4430894,14.2879769 91.4582656,14.3096077 C91.497832,14.3662462 91.7799458,14.5065615 91.9262873,14.5427077 C91.9945799,14.5595 92.0506775,14.5905231 92.0506775,14.6115846 C92.0506775,14.6329308 92.1116531,14.6642385 92.1861789,14.6813154 C92.2607046,14.6986769 92.3216802,14.7322615 92.3216802,14.7564538 C92.3216802,14.7803615 92.3468835,14.8008538 92.3780488,14.8017077 C92.4092141,14.8025615 92.5157182,14.8444 92.6151762,14.8947769 C92.7146341,14.9451538 92.8211382,14.9872769 92.8523035,14.9881308 C92.8834688,14.9889846 92.9086721,15.0094769 92.9086721,15.0333846 C92.9086721,15.0572923 92.9696477,15.0911615 93.0441734,15.1082385 C93.1186992,15.1256 93.1796748,15.1591846 93.1796748,15.1833769 C93.1796748,15.2072846 93.2054201,15.2269231 93.2368564,15.2269231 C93.2682927,15.2269231 93.3699187,15.2696154 93.4626016,15.3217 C93.5552846,15.3740692 93.6617886,15.4167615 93.698916,15.4167615 C93.7363144,15.4167615 93.7669377,15.4381077 93.7669377,15.4640077 C93.7669377,15.4901923 93.7915989,15.5115385 93.8219512,15.5115385 C94.004607,15.5115385 95.3712737,16.3013462 95.5891599,16.5327385 C95.9135501,16.8774077 96.1157182,17.1907692 96.1157182,17.3490154 C96.1157182,17.3820308 96.1336043,17.4090692 96.1558266,17.4090692 C96.1777778,17.4090692 96.2100271,17.4890462 96.2276423,17.5869538 C96.2449864,17.6845769 96.2791328,17.7901692 96.303523,17.8209077 C96.3948509,17.9370308 96.2761518,19.1517692 96.1631436,19.2590692 C96.1495935,19.2718769 96.097561,19.3680769 96.0482385,19.4725308 C95.9168022,19.7491769 95.3227642,20.35 95.1804878,20.35 C95.1482385,20.35 95.1219512,20.3696385 95.1219512,20.3935462 C95.1219512,20.4177385 95.0609756,20.4513231 94.9864499,20.4686846 C94.9119241,20.4857615 94.8509485,20.5187769 94.8509485,20.5418308 C94.8509485,20.5648846 94.7493225,20.5981846 94.6252033,20.6152615 C94.500813,20.6326231 94.399187,20.6636462 94.399187,20.6844231 C94.399187,20.7049154 94.2620596,20.7367923 94.0943089,20.7552923 C93.9268293,20.7735077 93.7609756,20.8125 93.7260163,20.8421 C93.6428184,20.9124 91.2883469,20.9095538 91.2447154,20.8389692 C91.2284553,20.8122154 91.0325203,20.7752154 90.8092141,20.7567154 C90.5861789,20.7379308 90.3815718,20.7034923 90.3544715,20.6801538 C90.3276423,20.6568154 90.1902439,20.6232308 90.0490515,20.6058692 C89.9078591,20.5885077 89.7921409,20.5563462 89.7921409,20.5347154 C89.7921409,20.5133692 89.6905149,20.4814923 89.5663957,20.4641308 C89.4422764,20.4467692 89.3406504,20.4157462 89.3406504,20.3949692 C89.3406504,20.3744769 89.2745257,20.3426 89.1937669,20.3246692 C89.1130081,20.3064538 89.0265583,20.2757154 89.001897,20.2560769 C88.9769648,20.2367231 88.896748,20.2057 88.8235772,20.1872 C88.6772358,20.1504846 87.8934959,19.7602769 87.7146341,19.6350462 C87.6525745,19.5917846 87.4734417,19.4839154 87.3168022,19.3956846 C87.1601626,19.3074538 86.9875339,19.2089769 86.9327913,19.1765308 C86.8146341,19.1068 86.6783198,19.1013923 86.5853659,19.1631538 C86.4739837,19.2371538 86.4872629,22.7194231 86.6,22.9747231 C86.6897019,23.1785077 87.0560976,23.5755462 87.1542005,23.5755462 C87.1891599,23.5755462 87.2176152,23.5968923 87.2176152,23.6230769 C87.2176152,23.6492615 87.2430894,23.6711769 87.2742547,23.6720308 C87.3051491,23.6728846 87.4119241,23.7150077 87.5113821,23.7653846 C87.6105691,23.8157615 87.7376694,23.8578846 87.7934959,23.8587385 C87.8495935,23.8595923 87.895122,23.8803692 87.895122,23.9048462 C87.895122,23.9293231 87.9867209,23.9637615 88.098374,23.9814077 C88.2102981,23.9990538 88.301626,24.0303615 88.301626,24.0511385 C88.301626,24.0719154 88.3880759,24.1040769 88.4937669,24.1222923 C88.599187,24.1405077 88.7059621,24.1721 88.7308943,24.1923077 C88.7555556,24.2125154 88.8674797,24.2443923 88.9791328,24.2634615 C89.0910569,24.2825308 89.20271,24.3144077 89.2276423,24.3346154 C89.2525745,24.3548231 89.3845528,24.3855615 89.5211382,24.4032077 C89.6577236,24.4205692 89.8102981,24.4547231 89.8598916,24.4789154 C89.9636856,24.5292923 90.5723577,24.6013 91.4859079,24.6710308 C92.1663957,24.7231154 94.0685637,24.6895308 94.1476965,24.6240692 C94.1742547,24.6021538 94.3579946,24.5694231 94.5560976,24.5514923 C94.7542005,24.5332769 94.9371274,24.5011154 94.9626016,24.4797692 C94.9880759,24.4587077 95.1260163,24.4262615 95.2688347,24.4083308 C95.4116531,24.3901154 95.5284553,24.3576692 95.5284553,24.3363231 C95.5284553,24.3035923 95.6571816,24.2694385 95.9235772,24.2318692 C95.9547425,24.2276 95.9802168,24.2079615 95.9802168,24.1886077 C95.9802168,24.1692538 96.0615176,24.1388 96.1607046,24.1211538 C96.2601626,24.1035077 96.3414634,24.0696385 96.3414634,24.0457308 C96.3414634,24.0221077 96.3807588,24.0024692 96.4284553,24.0024692 C96.4764228,24.0024692 96.5460705,23.9705923 96.5834688,23.9313154 C96.6205962,23.8923231 96.6723577,23.8601615 96.698103,23.8601615 C96.7712737,23.8601615 97.1092141,23.6654846 97.1092141,23.6233615 C97.1092141,23.6028692 97.1601626,23.5724154 97.2222222,23.5561923 C97.2842818,23.5396846 97.3352304,23.5055308 97.3352304,23.4799154 C97.3352304,23.4543 97.3626016,23.4332385 97.395935,23.4332385 C97.4292683,23.4332385 97.4934959,23.3905462 97.5384824,23.3384615 C97.5834688,23.2863769 97.6355014,23.2436846 97.6544715,23.2436846 C97.7661247,23.2436846 98.7338753,22.2361462 98.8934959,21.9540923 C99.098374,21.5912077 99.2067751,21.4136077 99.2360434,21.3931154 C99.2547425,21.3797385 99.2840108,21.3102923 99.301355,21.2388538 C99.3184282,21.1674154 99.3504065,21.1090692 99.3726287,21.1090692 C99.3945799,21.1090692 99.4135501,21.0823154 99.4143631,21.0495846 C99.4151762,21.0171385 99.4552846,20.905 99.503252,20.8005462 C99.5512195,20.6963769 99.5910569,20.5748462 99.5918699,20.5307308 C99.5926829,20.4866154 99.6127371,20.4379462 99.6360434,20.4228615 C99.6593496,20.4077769 99.6924119,20.2993385 99.7089431,20.1823615 C99.7257453,20.0651 99.7558266,19.9586538 99.7758808,19.9458462 C99.795935,19.9327538 99.8262873,19.7833308 99.8436314,19.6137 C99.8609756,19.4437846 99.8929539,19.2935077 99.9149051,19.2792769 C99.9663957,19.2459769 99.9674797,17.2667615 99.9162602,17.2667615 C99.8948509,17.2667615 99.8639566,17.1127846 99.8471545,16.9246538 C99.8306233,16.7368077 99.8,16.5714462 99.7791328,16.5572154 C99.7585366,16.5429846 99.7273713,16.4299923 99.7100271,16.3061846 C99.6924119,16.1820923 99.6593496,16.0807692 99.6357724,16.0807692 C99.6124661,16.0807692 99.5926829,16.0434846 99.5918699,15.9976615 C99.5910569,15.9521231 99.5512195,15.8294538 99.503252,15.725 C99.4552846,15.6205462 99.4151762,15.5086923 99.4143631,15.4759615 C99.4135501,15.4432308 99.3924119,15.4167615 99.3677507,15.4167615 C99.3428184,15.4167615 99.3224932,15.3900077 99.3224932,15.3572769 C99.3224932,15.2767308 98.8764228,14.5486846 98.798103,14.5011538 C98.7634146,14.4803769 98.7352304,14.4422385 98.7352304,14.4166231 C98.7352304,14.3597 98.0588076,13.6140077 98.0073171,13.6140077 C97.9869919,13.6140077 97.9116531,13.5553769 97.8395664,13.4836538 C97.6899729,13.3345154 97.5132791,13.1953385 97.3433604,13.0923077 C97.2788618,13.0530308 97.204878,13.0040769 97.1788618,12.9833 C97.1143631,12.9315 96.8566396,12.7812231 96.6124661,12.6534308 C96.500542,12.5948 96.398916,12.5324692 96.3861789,12.5151077 C96.3734417,12.4974615 96.3073171,12.4684308 96.2392954,12.4505 C96.1712737,12.4325692 96.1157182,12.4006923 96.1157182,12.3793462 C96.1157182,12.3582846 96.0547425,12.3266923 95.9802168,12.3096154 C95.9056911,12.2925385 95.8447154,12.2603769 95.8447154,12.2384615 C95.8447154,12.2165462 95.7837398,12.1843846 95.7092141,12.1673077 C95.6346883,12.1502308 95.5737127,12.1163615 95.5737127,12.0924538 C95.5737127,12.0682615 95.5479675,12.0486231 95.5165312,12.0486231 C95.4850949,12.0486231 95.3834688,12.0059308 95.2907859,11.9538462 C95.198103,11.9017615 95.0915989,11.8590692 95.0544715,11.8590692 C95.0170732,11.8590692 94.9864499,11.8394308 94.9864499,11.8152385 C94.9864499,11.7913308 94.9254743,11.7574615 94.8509485,11.7403846 C94.7764228,11.7233077 94.7154472,11.6894385 94.7154472,11.6655308 C94.7154472,11.6413385 94.6921409,11.6217 94.6639566,11.6217 C94.6355014,11.6217 94.5289973,11.5807154 94.4268293,11.5306231 C94.2493225,11.4432462 93.8403794,11.248 93.4891599,11.0826385 C93.398374,11.0399462 93.301897,11.0052231 93.2745257,11.0052231 C93.2471545,11.0052231 93.2249322,10.9838769 93.2249322,10.9576923 C93.2249322,10.9315077 93.201626,10.9101615 93.1734417,10.9101615 C93.1449864,10.9101615 93.0384824,10.8694615 92.9363144,10.8193692 C92.6897019,10.6984077 92.0647696,10.3978538 91.8818428,10.3121846 C91.4905149,10.1286077 91.3945799,10.0773769 91.3804878,10.0446462 C91.3723577,10.0250077 91.3441734,10.0090692 91.3178862,10.0090692 C91.2631436,10.0090692 90.8653117,9.81069231 90.8311653,9.76629231 C90.8186992,9.75035385 90.7577236,9.72075385 90.695664,9.70054615 C90.4750678,9.62939231 89.8826558,9.13757692 89.8826558,9.02572308 C89.8826558,8.99896923 89.8536585,8.95172308 89.8184282,8.92098462 C89.7829268,8.89024615 89.7406504,8.78095385 89.7241192,8.67792308 C89.7075881,8.57517692 89.6753388,8.49093077 89.6528455,8.49093077 C89.6300813,8.49093077 89.6116531,8.35232308 89.6116531,8.18269231 C89.6116531,8.00879231 89.6311653,7.87445385 89.6566396,7.87445385 C89.6815718,7.87445385 89.701897,7.83916154 89.701897,7.7959 C89.701897,7.44696154 90.20271,6.83162308 90.6734417,6.60250769 C90.797561,6.54216923 90.9314363,6.47443077 90.9712737,6.45223077 C91.0111111,6.43003077 91.1382114,6.39701538 91.2536585,6.3788 C91.3688347,6.36058462 91.4634146,6.32899231 91.4634146,6.3085 C91.4634146,6.28800769 91.6311653,6.25584615 91.8360434,6.23706154 C92.0409214,6.21827692 92.2230352,6.179 92.2403794,6.14996923 C92.2831978,6.07853077 94.6200542,6.08166154 94.6628726,6.1531 C94.6794038,6.18042308 94.8807588,6.21827692 95.1105691,6.23706154 C95.3403794,6.25613077 95.5284553,6.28829231 95.5284553,6.3085 C95.5284553,6.32870769 95.6604336,6.3603 95.8216802,6.37823077 C95.9826558,6.39644615 96.1249322,6.42860769 96.1371274,6.44966923 C96.1495935,6.47044615 96.2563686,6.50289231 96.3747967,6.52139231 C96.4929539,6.53989231 96.6102981,6.57205385 96.6349593,6.59254615 C96.6598916,6.61332308 96.7476965,6.6452 96.8300813,6.6637 C96.9124661,6.6822 97.0344173,6.72716923 97.101084,6.76388462 C97.1677507,6.80031538 97.2680217,6.8302 97.3238482,6.83048462 C97.3796748,6.83076923 97.4254743,6.85126154 97.4254743,6.87602308 C97.4254743,6.90106923 97.496477,6.93522308 97.5834688,6.95258462 C97.6704607,6.96966154 97.7417344,7.00267692 97.7417344,7.02573077 C97.7417344,7.04906923 97.7669377,7.06870769 97.798103,7.06956154 C97.8292683,7.07041538 97.9357724,7.11253846 98.0352304,7.16291538 C98.1346883,7.21329231 98.2387534,7.25513077 98.2669377,7.25598462 C98.2948509,7.25683846 98.3430894,7.28956923 98.3739837,7.32884615 C98.4094851,7.37381538 98.5089431,7.4 98.6433604,7.4 C98.9639566,7.4 98.9588076,7.4333 98.9588076,5.36016154 C98.9588076,3.37696154 98.9544715,3.34138462 98.7054201,3.29214615 C98.6219512,3.27563846 98.5436314,3.24518462 98.5314363,3.22440769 C98.5189702,3.20363077 98.4279133,3.17203846 98.3287263,3.15439231 C98.2298103,3.13703077 98.1382114,3.10486923 98.1254743,3.08323846 C98.1130081,3.06189231 98.0214092,3.02973077 97.9222222,3.01208462 C97.8233062,2.99472308 97.7308943,2.96142308 97.7173442,2.93836923 C97.703794,2.91531538 97.5918699,2.8823 97.4688347,2.86522308 C97.3455285,2.84786154 97.2447154,2.81740769 97.2447154,2.7972 C97.2447154,2.77670769 97.1390244,2.74483077 97.0094851,2.72633077 C96.8799458,2.70754615 96.7428184,2.67396154 96.704607,2.65176154 C96.6663957,2.62956154 96.5130081,2.59028462 96.3639566,2.56466923 C96.2149051,2.53876923 95.9913279,2.49693077 95.8672087,2.47131538 C95.7430894,2.4457 95.5387534,2.4235 95.4132791,2.42207692 C95.2878049,2.42036923 95.1634146,2.39646154 95.1371274,2.36885385 C95.0867209,2.31563077 92.9520325,2.2718 92.2336043,2.3088 M42.1409214,2.45110769 C42.0788618,2.46476923 42.0075881,2.49209231 41.9829268,2.51201538 C41.9579946,2.53222308 41.8840108,2.56182308 41.8186992,2.57833077 C41.6411924,2.62273077 41.2886179,2.99386923 41.2547425,3.17175385 C41.2387534,3.25457692 41.2081301,3.33398462 41.1864499,3.34793077 C41.099458,3.40456923 41.1387534,24.1040769 41.2262873,24.1738077 C41.3417344,24.2657385 44.5661247,24.2657385 44.6815718,24.1738077 C44.7560976,24.1143231 44.7607046,23.7403385 44.7620596,17.5223462 C44.7636856,10.9400462 44.7636856,10.9340692 44.8533875,11.0524692 C44.90271,11.1179308 44.9834688,11.2209615 45.0325203,11.2818692 C45.0818428,11.3427769 45.1219512,11.4048231 45.1219512,11.4193385 C45.1219512,11.4341385 45.1929539,11.5186692 45.2799458,11.6074692 C45.3669377,11.6959846 45.4384824,11.7836462 45.4387534,11.8018615 C45.4392954,11.8203615 45.499729,11.9100154 45.5731707,12.0013769 C45.897832,12.4043923 46.1425474,12.7228769 46.5222222,13.2346154 C46.7059621,13.4825154 46.8829268,13.7133385 46.9151762,13.7480615 C46.9474255,13.7825 46.9737127,13.8251923 46.9737127,13.8428385 C46.9737127,13.8607692 47.0601626,13.9743308 47.1658537,14.0952923 C47.4327913,14.4012538 47.596477,14.6041846 47.6138211,14.6517154 C47.6333333,14.7043692 47.8669377,15.0083385 48.0238482,15.1850846 C48.0921409,15.2622154 48.1485095,15.3402 48.1493225,15.3589846 C48.1498645,15.3777692 48.2208672,15.4782385 48.3073171,15.5826923 C48.3937669,15.6871462 48.4796748,15.7938769 48.498645,15.8197769 C48.7279133,16.1382615 49.0327913,16.5412769 49.0723577,16.5788462 C49.1,16.6050308 49.1682927,16.6946846 49.2241192,16.7783615 C49.3319783,16.9394538 49.4338753,17.0706615 49.6723577,17.3535692 C49.7528455,17.4492 49.8189702,17.5405615 49.8192412,17.5562154 C49.8192412,17.5718692 49.8650407,17.6387538 49.9208672,17.7045 C49.9769648,17.7705308 50.0734417,17.8926308 50.1355014,17.9763077 C50.197561,18.0599846 50.3056911,18.1960308 50.3756098,18.2785692 C50.4452575,18.3613923 50.5547425,18.5088231 50.6186992,18.6067308 C50.6823848,18.7046385 50.7523035,18.7846154 50.7737127,18.7846154 C50.795393,18.7846154 50.8135501,18.8113692 50.8140921,18.8438154 C50.8146341,18.8765462 50.8807588,18.981 50.9609756,19.0763462 C51.2598916,19.4312615 51.3550136,19.5542154 51.3550136,19.5852385 C51.3550136,19.6780231 51.8466125,20.1601615 51.9414634,20.1601615 C52.0363144,20.1601615 52.3913279,19.8169154 52.3932249,19.7229923 C52.3934959,19.7044923 52.4498645,19.6256538 52.5181572,19.5479538 C52.6672087,19.3783231 52.703523,19.3310769 52.8474255,19.1207462 C52.9086721,19.0316615 53.0092141,18.9007385 53.0712737,18.8295846 C53.1336043,18.7584308 53.2352304,18.6286462 53.29729,18.5412692 C53.3593496,18.4538923 53.4864499,18.2945077 53.5794038,18.1869231 C53.6726287,18.0793385 53.7487805,17.9669154 53.7487805,17.9373154 C53.7487805,17.9077154 53.7663957,17.8832385 53.7878049,17.8832385 C53.8094851,17.8832385 53.8856369,17.7930154 53.9571816,17.6823 C54.0289973,17.5718692 54.1333333,17.4361077 54.1891599,17.3806077 C54.2452575,17.3248231 54.2907859,17.2553769 54.2907859,17.2257769 C54.2907859,17.1958923 54.3084011,17.1717 54.3298103,17.1717 C54.3514905,17.1717 54.4276423,17.0817615 54.499187,16.9719 C54.5710027,16.8617538 54.6601626,16.7382308 54.69729,16.6975308 C54.7346883,16.6565462 54.8159892,16.5526615 54.8780488,16.4664231 C54.9401084,16.3801846 55.0116531,16.2848385 55.0371274,16.2546692 C55.0623306,16.2242154 55.1639566,16.0927231 55.2628726,15.9620846 C55.3617886,15.8317308 55.4552846,15.7141846 55.4707317,15.7013769 C55.4859079,15.6882846 55.6054201,15.5308923 55.7357724,15.3518692 C55.8661247,15.1725615 56.001355,14.9909769 56.0365854,14.9485692 C56.1157182,14.8523692 56.398645,14.4829385 56.5493225,14.2794385 C56.6113821,14.1954769 56.7276423,14.0489 56.8078591,13.9535538 C56.8880759,13.8582077 56.9542005,13.764 56.9547425,13.7446462 C56.9552846,13.7250077 56.9913279,13.6703615 57.0346883,13.6231154 C57.1620596,13.4845077 57.4737127,13.0829154 57.4913279,13.0345308 C57.500271,13.0100538 57.5612466,12.9295077 57.6268293,12.8555077 C57.7861789,12.6756308 58.0132791,12.3782077 58.0333333,12.3229923 C58.0422764,12.2985154 58.103252,12.2179692 58.1688347,12.1439692 C58.3067751,11.9882846 58.4899729,11.7517692 58.7246612,11.4258846 C58.8154472,11.2998 58.9222222,11.1626154 58.9617886,11.1210615 C59.001084,11.0797923 59.0382114,11.0205923 59.0441734,10.9898538 C59.0498645,10.9591154 59.0650407,13.7304154 59.0780488,17.1480769 C59.100813,23.2337231 59.102981,23.3655 59.1907859,23.5283 C59.3065041,23.7426154 59.5325203,24.0024692 59.602981,24.0024692 C59.6333333,24.0024692 59.6655827,24.0252385 59.6742547,24.0531308 C59.6831978,24.0807385 59.7761518,24.1157462 59.8813008,24.1305462 C59.9864499,24.1453462 60.0723577,24.1758 60.0723577,24.1985692 C60.0723577,24.2751308 62.5536585,24.2495154 62.6273713,24.1721 C62.698374,24.0975308 62.7287263,3.27364615 62.6579946,3.27250769 C62.6395664,3.27250769 62.5853659,3.17972308 62.5382114,3.06644615 C62.4907859,2.95316923 62.3943089,2.81996923 62.3238482,2.77044615 C62.2531165,2.72063846 62.195393,2.664 62.195122,2.64464615 C62.195122,2.62500769 62.1696477,2.60878462 62.1387534,2.60878462 C62.1075881,2.6085 62.0211382,2.57406154 61.9466125,2.53222308 C61.7574526,2.42606154 61.0208672,2.4198 61.0208672,2.52453846 C61.0208672,2.54474615 60.9921409,2.56153846 60.9571816,2.56153846 C60.8823848,2.56153846 60.4509485,2.99187692 60.3051491,3.21188462 C60.198916,3.37212308 60.098374,3.50162308 59.8579946,3.78680769 C59.7772358,3.88272308 59.7113821,3.97607692 59.7111111,3.99457692 C59.7111111,4.01307692 59.6742547,4.06658462 59.6295393,4.11326154 C59.5845528,4.15993846 59.4373984,4.3475 59.302439,4.53022308 C59.1672087,4.71266154 59.0363144,4.88969231 59.0111111,4.92327692 C58.9861789,4.95686154 58.899729,5.06131538 58.8189702,5.15523846 C58.7382114,5.24916154 58.6720867,5.34365385 58.6720867,5.36528462 C58.6720867,5.38691538 58.6162602,5.46916923 58.5479675,5.54800769 C58.2617886,5.87873077 58.1859079,5.97265385 57.9504065,6.28715385 C57.8143631,6.46873846 57.6910569,6.62783846 57.6764228,6.64093077 C57.6617886,6.65402308 57.5414634,6.81426154 57.4092141,6.9967 C57.202439,7.28216923 56.9620596,7.60321538 56.797561,7.81326154 C56.7728997,7.84513846 56.7319783,7.89836154 56.7067751,7.93194615 C56.404878,8.33296923 56.2918699,8.47328462 56.2444444,8.50516154 C56.2132791,8.52622308 56.1878049,8.56265385 56.1878049,8.58656154 C56.1878049,8.61046923 56.1319783,8.69300769 56.0636856,8.77013846 C55.904878,8.94887692 55.6728997,9.25113846 55.6531165,9.30464615 C55.6357724,9.35217692 55.5168022,9.50359231 55.2737127,9.78792308 C55.1810298,9.89636154 55.104878,10.0119154 55.104336,10.0446462 C55.104065,10.0770923 55.0878049,10.1038462 55.0682927,10.1038462 C55.0487805,10.1038462 54.9593496,10.2051692 54.8699187,10.3292615 C54.6159892,10.6799077 54.5485095,10.7672846 54.4151762,10.9167077 C54.3468835,10.9932692 54.2907859,11.0681231 54.2907859,11.0829231 C54.2907859,11.0977231 54.2379404,11.1771308 54.1731707,11.2591 C54.1081301,11.3413538 53.9913279,11.4910615 53.9132791,11.5923846 C53.8352304,11.6934231 53.7406504,11.8112538 53.702981,11.8539462 C53.6655827,11.8966385 53.5845528,12.0056462 53.5230352,12.0961538 C53.4615176,12.1866615 53.3804878,12.2956692 53.3430894,12.3380769 C53.2867209,12.4018308 52.9176152,12.8885231 52.7891599,13.0686846 C52.7704607,13.0945846 52.6845528,13.2013154 52.598103,13.3057692 C52.5119241,13.4102231 52.4406504,13.5106923 52.4401084,13.5294769 C52.4395664,13.5482615 52.3831978,13.6262462 52.3149051,13.7033769 C52.2466125,13.7802231 52.1308943,13.9219615 52.0577236,14.0181615 C51.9338753,14.1815308 51.9214092,14.1872231 51.8682927,14.1052538 C51.7731707,13.9575385 51.7135501,13.8795538 51.3249322,13.3914385 C51.2794038,13.3342308 51.1913279,13.2181077 51.1292683,13.1332923 C51.0672087,13.0487615 50.9552846,12.9013308 50.8807588,12.8057 C50.8062331,12.7100692 50.6842818,12.5515385 50.6097561,12.4533462 C50.5352304,12.3551538 50.4336043,12.2256538 50.3840108,12.1658846 C50.3341463,12.1061154 50.2631436,12.0090615 50.2257453,11.9507154 C50.1886179,11.8920846 50.1224932,11.8106846 50.0791328,11.7699846 C50.0355014,11.729 50,11.6700846 50,11.6390615 C50,11.6077538 49.9842818,11.5750231 49.9653117,11.5664846 C49.9463415,11.5576615 49.8504065,11.4438154 49.7523035,11.3134615 C49.6542005,11.1831077 49.5425474,11.0399462 49.504607,10.9955462 C49.4666667,10.9511462 49.4151762,10.8868231 49.3902439,10.8526692 C49.3653117,10.8185154 49.2639566,10.6841769 49.1650407,10.5541077 C49.0661247,10.4237538 48.9644986,10.2897 48.9392954,10.2561154 C48.9140921,10.2225308 48.8273713,10.1183615 48.7466125,10.0241538 C48.6658537,9.93023077 48.599729,9.84029231 48.599729,9.82435385 C48.599458,9.80841538 48.5333333,9.71876154 48.4528455,9.62483846 C48.2617886,9.40226923 48.1504065,9.25768462 48.0157182,9.0576 C47.9555556,8.96766154 47.8699187,8.85153846 47.8257453,8.79945385 C47.7596206,8.72146923 47.4772358,8.35346154 47.2682927,8.0734 C47.2430894,8.03924615 47.1685637,7.95016154 47.102981,7.87530769 C47.0373984,7.80045385 46.9764228,7.71933846 46.9674797,7.69486154 C46.9468835,7.63879231 46.7186992,7.34051538 46.5560976,7.15722308 C46.4878049,7.08009231 46.4317073,7.00466923 46.4317073,6.98901538 C46.4317073,6.97364615 46.3658537,6.88114615 46.2850949,6.78352308 C46.204336,6.6859 46.0875339,6.53505385 46.0252033,6.44796154 C45.9631436,6.36086923 45.8411924,6.19892308 45.7542005,6.08792308 C45.6672087,5.97692308 45.5520325,5.82664615 45.497832,5.75378462 C45.3284553,5.52552308 45.0783198,5.19906923 44.9780488,5.07554615 C44.9252033,5.01036923 44.7850949,4.82451538 44.6666667,4.66228462 C44.5482385,4.50033846 44.4289973,4.3401 44.401897,4.30651538 C44.2200542,4.08223846 44.1116531,3.94363077 44.0246612,3.82466154 C43.9699187,3.74980769 43.8894309,3.65446154 43.8460705,3.61262308 C43.802439,3.57078462 43.7669377,3.51898462 43.7669377,3.49763846 C43.7669377,3.47629231 43.7241192,3.41168462 43.6720867,3.35419231 C43.6197832,3.29641538 43.5233062,3.1746 43.4574526,3.08323846 C43.2859079,2.84501538 43.0504065,2.61732308 42.9379404,2.58060769 C42.8845528,2.56296154 42.8287263,2.52852308 42.8135501,2.50376154 C42.7815718,2.45196154 42.3081301,2.41496154 42.1409214,2.45110769 M67.4910569,2.82224615 C67.400813,2.92983077 67.4089431,24.0773231 67.498916,24.1721 C67.5910569,24.2685846 70.8479675,24.2700077 70.9688347,24.1738077 C71.0430894,24.1143231 71.0479675,23.8345462 71.0479675,19.4790769 L71.0479675,14.8475308 L74.9081301,14.8475308 L78.7682927,14.8475308 L78.7810298,19.0669538 C78.7913279,22.3645077 78.8065041,23.2991846 78.8504065,23.3455769 C78.8815718,23.3783077 78.9070461,23.4400692 78.9070461,23.4830462 C78.9070461,23.5260231 78.9425474,23.606 78.9859079,23.6609308 C79.0295393,23.7158615 79.095393,23.8003923 79.1327913,23.8490615 C79.2368564,23.9842538 79.5140921,24.1447769 79.6436314,24.1447769 C79.7075881,24.1447769 79.7723577,24.1661231 79.7878049,24.1923077 C79.8425474,24.2853769 82.2330623,24.2535 82.3390244,24.1581538 C82.4826558,24.0289385 82.4826558,2.96199231 82.3390244,2.83306154 C82.2097561,2.71665385 79.0303523,2.71010769 78.8842818,2.82594615 C78.795393,2.89653077 78.7937669,2.96085385 78.7821138,6.97506923 L78.7699187,11.0524692 L74.9089431,11.0524692 L71.0479675,11.0524692 L71.0479675,6.96653077 C71.0479675,3.13048462 71.0430894,2.87660769 70.9688347,2.81740769 C70.8485095,2.72120769 67.5718157,2.72604615 67.4910569,2.82224615 M12.398103,31.0822769 C12.3845528,31.1411923 12.3791328,32.4379 12.3859079,33.9640077 L12.398374,36.7390077 L13.795664,36.7515308 C14.696477,36.7597846 15.2092141,36.7469769 15.2387534,36.7159538 C15.2639566,36.6894846 15.3121951,36.6678538 15.3460705,36.6678538 C15.6357724,36.6678538 16.1319783,36.2375154 16.3065041,35.8347846 C16.4352304,35.5382154 16.4249322,34.5574308 16.2918699,34.4174 C16.2495935,34.373 16.2149051,34.3197769 16.2149051,34.2987154 C16.2149051,34.2429308 15.8216802,33.8518692 15.7292683,33.8157231 C15.6615176,33.7892538 15.6663957,33.7781538 15.7634146,33.7371692 C16.2471545,33.5331 16.498103,32.2617231 16.1409214,31.8256923 C16.1070461,31.7844231 16.0794038,31.7354692 16.0794038,31.7166846 C16.0794038,31.6469538 15.7802168,31.3728692 15.6051491,31.2826462 C15.5059621,31.2311308 15.4127371,31.1722154 15.398103,31.1514385 C15.3834688,31.1306615 15.2252033,31.1007769 15.0466125,31.0851231 C14.8677507,31.0694692 14.7108401,31.0381615 14.697832,31.0159615 C14.6845528,30.9937615 14.1674797,30.9755462 13.5482385,30.9755462 L12.4227642,30.9755462 L12.398103,31.0822769 M21.0747967,31.0156769 C21.0604336,31.0398692 20.9775068,31.0737385 20.8902439,31.0911 C20.802981,31.1081769 20.7317073,31.1403385 20.7317073,31.1622538 C20.7317073,31.1844538 20.6804878,31.2160462 20.6181572,31.2325538 C20.4888889,31.2667077 20.3747967,31.3538 20.1460705,31.5940154 C19.9176152,31.8342308 19.8344173,31.9537692 19.801897,32.0895308 C19.7861789,32.1552769 19.7569106,32.2090692 19.7368564,32.2090692 C19.7165312,32.2090692 19.6859079,32.2782308 19.6685637,32.3630462 C19.6514905,32.4478615 19.6140921,32.5471923 19.5859079,32.5839077 C19.5506775,32.6297308 19.5346883,33.0432769 19.5346883,33.9167615 C19.5346883,34.7902462 19.5506775,35.2035077 19.5859079,35.2493308 C19.6140921,35.2860462 19.6514905,35.3853769 19.6685637,35.4701923 C19.6859079,35.5550077 19.7165312,35.6244538 19.7368564,35.6244538 C19.7569106,35.6244538 19.7861789,35.6782462 19.801897,35.7439923 C19.8390244,35.8988231 20.0582656,36.1726231 20.3406504,36.4162538 C20.4411924,36.5027769 20.7463415,36.6678538 20.8062331,36.6678538 C20.8357724,36.6678538 20.8682927,36.6946077 20.8785908,36.7273385 C20.903794,36.8070308 22.3902439,36.8127231 22.4384824,36.7333154 C22.4560976,36.704 22.5365854,36.6647231 22.6173442,36.6465077 C22.698103,36.6280077 22.7642276,36.5947077 22.7642276,36.5725077 C22.7642276,36.5503077 22.799729,36.5201385 22.8433604,36.5053385 C22.995935,36.4541077 23.5289973,35.8601154 23.5336043,35.7360231 C23.5344173,35.7138231 23.5745257,35.6102231 23.6224932,35.5057692 C23.6704607,35.4013154 23.7102981,35.2615692 23.7111111,35.1949692 C23.7119241,35.1286538 23.7376694,35.0478231 23.7682927,35.0159462 C23.8476965,34.9322692 23.8468835,33.1164231 23.7669377,32.8255462 C23.6222222,32.2975846 23.5132791,31.9924769 23.4571816,31.9574692 C23.4238482,31.9366923 23.396477,31.8977 23.396477,31.8709462 C23.396477,31.6825308 22.5821138,31.0763 22.3238482,31.0720308 C22.2680217,31.0711769 22.2222222,31.0515385 22.2222222,31.0282 C22.2222222,30.9715615 21.1081301,30.9593231 21.0747967,31.0156769 M53.8392954,33.8692308 L53.8392954,36.7629154 L55.2620596,36.7629154 C56.1804878,36.7629154 56.6848238,36.7461231 56.6848238,36.7153846 C56.6848238,36.6892 56.7260163,36.6678538 56.7766938,36.6678538 C57.0823848,36.6678538 57.7688347,36.0417 57.7688347,35.7627769 C57.7688347,35.7158154 57.7891599,35.6643 57.8138211,35.6480769 C57.8390244,35.6318538 57.8590786,35.4104231 57.8590786,35.1471538 C57.8590786,34.8645308 57.8409214,34.6755462 57.8138211,34.6755462 C57.7891599,34.6755462 57.7688347,34.6308615 57.7688347,34.5762154 C57.7688347,34.4165462 57.4216802,33.9620154 57.200542,33.8319462 C57.1292683,33.7901077 57.1322493,33.7801462 57.2308943,33.7252154 C57.3731707,33.6458077 57.4612466,33.5373692 57.5631436,33.3153692 C57.6089431,33.2157538 57.6639566,33.0967846 57.6850949,33.0515308 C57.7398374,32.9342692 57.7341463,32.0667615 57.6783198,32.0667615 C57.6536585,32.0667615 57.6333333,32.0254923 57.6333333,31.9751154 C57.6333333,31.9247385 57.60271,31.8515923 57.5655827,31.8126 C57.5281843,31.7733231 57.497832,31.7226615 57.497832,31.6998923 C57.497832,31.6381308 57.2084011,31.3552231 57.1455285,31.3552231 C57.1157182,31.3552231 57.0913279,31.3361538 57.0913279,31.3128154 C57.0913279,31.2894769 57.0355014,31.2558923 56.9674797,31.2379615 C56.899458,31.2200308 56.8306233,31.1830308 56.8146341,31.1557077 C56.798374,31.1283846 56.6401084,31.0950846 56.4628726,31.0817077 C56.2856369,31.0686154 56.1295393,31.0390154 56.1162602,31.0165308 C56.102981,30.9940462 55.5853659,30.9755462 54.9655827,30.9755462 L53.8392954,30.9755462 L53.8392954,33.8692308 M76.1327913,31.0168154 C76.1195122,31.0395846 76.0268293,31.0717462 75.9268293,31.0885385 C75.8271003,31.1053308 75.7452575,31.1400538 75.7452575,31.1659538 C75.7452575,31.1918538 75.7197832,31.2129154 75.6886179,31.2129154 C75.5078591,31.2129154 74.8869919,31.8359385 74.8869919,32.0172385 C74.8869919,32.0445615 74.8666667,32.0667615 74.8420054,32.0667615 C74.8170732,32.0667615 74.795935,32.0932308 74.795122,32.1259615 C74.7943089,32.1586923 74.7544715,32.2705462 74.7065041,32.375 C74.6585366,32.4794538 74.6184282,32.6328615 74.6176152,32.7159692 C74.6168022,32.7993615 74.595664,32.8807615 74.5710027,32.8967 C74.5149051,32.9331308 74.5086721,34.9129154 74.5644986,34.9129154 C74.5859079,34.9129154 74.6149051,35.0142385 74.6289973,35.1380462 C74.6430894,35.2621385 74.6864499,35.4275 74.7254743,35.5057692 C74.7642276,35.5840385 74.796206,35.6748308 74.796477,35.7072769 C74.796748,35.7400077 74.8170732,35.7667615 74.8420054,35.7667615 C74.8666667,35.7667615 74.8869919,35.7955077 74.8869919,35.8305154 C74.8869919,35.8655231 74.9276423,35.9329769 74.9775068,35.9802231 C75.0271003,36.0274692 75.0677507,36.0841077 75.0677507,36.1060231 C75.0677507,36.1504231 75.2338753,36.3359923 75.2737127,36.3359923 C75.2875339,36.3359923 75.3739837,36.3977538 75.4655827,36.4734615 C75.5571816,36.5488846 75.6831978,36.6265846 75.7452575,36.6459385 C75.8073171,36.6650077 75.8726287,36.7045692 75.8902439,36.7336 C75.9344173,36.8061769 77.3181572,36.8056077 77.4658537,36.7330308 C77.5254743,36.7037154 77.6254743,36.6559 77.6875339,36.6268692 C77.9338753,36.5110308 78.4100271,36.0784154 78.4100271,35.9702615 C78.4100271,35.9366769 78.4271003,35.9090692 78.4476965,35.9090692 C78.4682927,35.9090692 78.5314363,35.7969308 78.5883469,35.6600308 C78.6449864,35.5228462 78.7116531,35.3702923 78.7363144,35.3204846 C78.7607046,35.2709615 78.7918699,35.0626231 78.8051491,34.8579846 C78.8186992,34.6533462 78.8468835,34.4859923 78.8682927,34.4859923 C78.9186992,34.4859923 78.9189702,33.3609077 78.8685637,33.3281769 C78.8474255,33.3145154 78.8168022,33.1380538 78.800542,32.9359769 C78.7842818,32.7341846 78.7506775,32.5477615 78.7260163,32.5218615 C78.701355,32.4959615 78.6810298,32.4455846 78.6810298,32.4102923 C78.6810298,32.3069769 78.502439,31.9244538 78.4542005,31.9244538 C78.4298103,31.9244538 78.4100271,31.8942846 78.4100271,31.8572846 C78.4100271,31.7761692 78.004065,31.3563615 77.9246612,31.3557923 C77.8934959,31.3555077 77.8680217,31.3387154 77.8680217,31.3185077 C77.8680217,31.2644308 77.596748,31.1226923 77.4268293,31.0882538 C77.3455285,31.0717462 77.2680217,31.0395846 77.2547425,31.0168154 C77.2230352,30.9630231 76.1644986,30.9630231 76.1327913,31.0168154 M6.39457995,31.2345462 C6.37831978,31.3247692 6.33550136,31.4582538 6.29945799,31.5311154 C6.26314363,31.6039769 6.23360434,31.7072923 6.23333333,31.7608 C6.23306233,31.8143077 6.21598916,31.8783462 6.19512195,31.9031077 C6.17452575,31.9278692 6.10216802,32.1296615 6.03468835,32.3513769 C5.96720867,32.5730923 5.89430894,32.7891154 5.87235772,32.8315231 C5.85067751,32.8742154 5.81897019,32.9860692 5.80216802,33.0805615 C5.78509485,33.1753385 5.75447154,33.2524692 5.73387534,33.2524692 C5.71327913,33.2524692 5.68292683,33.3486692 5.66612466,33.4659308 C5.64932249,33.5834769 5.61842818,33.6793923 5.59756098,33.6793923 C5.57669377,33.6793923 5.54634146,33.7545308 5.5298103,33.8461769 C5.51355014,33.9375385 5.48401084,34.0232077 5.46395664,34.0360154 C5.44417344,34.0488231 5.41409214,34.1447385 5.39756098,34.2489077 C5.38075881,34.3530769 5.35067751,34.4384615 5.33089431,34.4384615 C5.31111111,34.4384615 5.28102981,34.5343769 5.26422764,34.6519231 C5.24769648,34.7691846 5.21571816,34.8653846 5.19349593,34.8653846 C5.17127371,34.8653846 5.13929539,34.9433692 5.12222222,35.0387154 C5.10514905,35.1343462 5.06368564,35.2675462 5.0300813,35.3352846 C4.99647696,35.4030231 4.96883469,35.4943846 4.96856369,35.5385 C4.96856369,35.5826154 4.9498645,35.6307154 4.92710027,35.6455154 C4.90433604,35.6603154 4.87208672,35.7573692 4.85555556,35.8615385 C4.83875339,35.9657077 4.80650407,36.0627615 4.78373984,36.0775615 C4.76097561,36.0923615 4.74173442,36.1404615 4.74092141,36.1845769 C4.7401084,36.2286923 4.700271,36.3502231 4.65230352,36.4543923 C4.51165312,36.7603538 4.51436314,36.7629154 4.98265583,36.7629154 L5.40352304,36.7629154 L5.50542005,36.4188154 C5.56124661,36.2298308 5.62330623,36.0422692 5.64336043,36.0024231 C5.66314363,35.9622923 5.69485095,35.8561308 5.71355014,35.7667615 C5.78644986,35.4183923 5.72710027,35.4346154 6.93875339,35.4346154 L8.02926829,35.4346154 L8.05365854,35.5413462 C8.08509485,35.6788154 8.34390244,36.4620769 8.41463415,36.6339846 C8.46883469,36.7657615 8.46910569,36.7657615 8.87533875,36.7523846 C9.32520325,36.7375846 9.34688347,36.7131077 9.18888889,36.3946231 C9.15338753,36.3231846 9.12411924,36.2286923 9.12411924,36.1845769 C9.12384824,36.1404615 9.10514905,36.0923615 9.08265583,36.0775615 C9.0598916,36.0627615 9.02764228,35.9657077 9.01084011,35.8615385 C8.99403794,35.7573692 8.96178862,35.6603154 8.93902439,35.6455154 C8.91653117,35.6307154 8.89783198,35.5826154 8.89756098,35.5385 C8.89756098,35.4943846 8.86775068,35.3987538 8.83170732,35.3258923 C8.79539295,35.2530308 8.75257453,35.1195462 8.73658537,35.0293231 C8.7203252,34.9391 8.69105691,34.8653846 8.67100271,34.8653846 C8.65121951,34.8653846 8.62113821,34.78 8.60433604,34.6758308 C8.58753388,34.5716615 8.55772358,34.4757462 8.53766938,34.4629385 C8.51788618,34.4501308 8.48834688,34.3644615 8.47181572,34.2731 C8.45555556,34.1814538 8.42493225,34.1063154 8.40406504,34.1063154 C8.38319783,34.1063154 8.35257453,34.0104 8.33577236,33.8928538 C8.31897019,33.7755923 8.28726287,33.6793923 8.26558266,33.6793923 C8.24390244,33.6793923 8.21219512,33.5834769 8.19539295,33.4659308 C8.17859079,33.3486692 8.14688347,33.2524692 8.12493225,33.2524692 C8.10298103,33.2524692 8.08482385,33.2151846 8.08455285,33.1696462 C8.08455285,33.1238231 8.05474255,33.0270538 8.01869919,32.9541923 C7.98238482,32.8813308 7.9395664,32.7478462 7.92357724,32.6576231 C7.90731707,32.5674 7.87831978,32.4936846 7.85907859,32.4936846 C7.8398374,32.4936846 7.81111111,32.4023231 7.79512195,32.2907538 C7.77940379,32.1791846 7.73631436,32.0272 7.699729,31.9532 C7.66314363,31.8792 7.63333333,31.7889769 7.63333333,31.7528308 C7.63333333,31.7166846 7.61165312,31.6870846 7.58536585,31.6870846 C7.55907859,31.6870846 7.55067751,31.6648846 7.56666667,31.6375615 C7.58265583,31.6105231 7.57723577,31.5624231 7.55474255,31.5308308 C7.53197832,31.4995231 7.48888889,31.3831154 7.45853659,31.2721154 L7.40379404,31.0706077 L6.91382114,31.0706077 L6.42384824,31.0706077 L6.39457995,31.2345462 M26.4680217,31.1653846 C26.4680217,31.2174692 26.4859079,31.2601615 26.5078591,31.2601615 C26.5300813,31.2601615 26.5617886,31.3563615 26.5785908,31.4736231 C26.595122,31.5911692 26.6268293,31.6870846 26.6485095,31.6870846 C26.6704607,31.6870846 26.701897,31.7832846 26.7186992,31.9005462 C26.7355014,32.0180923 26.7653117,32.1140077 26.7853659,32.1140077 C26.8051491,32.1140077 26.8349593,32.1993923 26.8517615,32.3035615 C26.8685637,32.4077308 26.898645,32.5036462 26.9184282,32.5164538 C26.9382114,32.5295462 26.9682927,32.6174923 26.9853659,32.7122692 C27.002168,32.8070462 27.0336043,32.9194692 27.0547425,32.9618769 C27.0761518,33.0042846 27.2094851,33.4232385 27.3514905,33.8928538 C27.4934959,34.3624692 27.6271003,34.7671923 27.6485095,34.7919538 C27.6699187,34.8167154 27.6875339,34.8807538 27.6878049,34.9342615 C27.6878049,34.9877692 27.7184282,35.0925077 27.7555556,35.1673615 C27.7926829,35.2419308 27.8230352,35.3387 27.8230352,35.3819615 C27.8230352,35.4255077 27.8509485,35.5029231 27.8850949,35.5544385 C27.9192412,35.6059538 27.9615176,35.7388692 27.9794038,35.8495846 C27.997019,35.9605846 28.0287263,36.0513769 28.0498645,36.0513769 C28.0710027,36.0513769 28.102168,36.1472923 28.1189702,36.2648385 C28.1357724,36.3821 28.1647696,36.4783 28.1837398,36.4783 C28.20271,36.4783 28.2303523,36.5423385 28.2452575,36.6206077 L28.2723577,36.7629154 L28.702439,36.7629154 C29.1314363,36.7629154 29.1327913,36.7623462 29.1327913,36.6442308 C29.1327913,36.5790538 29.1512195,36.5255462 29.1739837,36.5255462 C29.196748,36.5255462 29.2289973,36.4404462 29.2457995,36.3362769 C29.2623306,36.2318231 29.2929539,36.1356231 29.3135501,36.1225308 C29.3338753,36.1091538 29.3644986,36.0129538 29.3813008,35.9090692 C29.397832,35.8049 29.4284553,35.7087 29.4490515,35.6956077 C29.4693767,35.6822308 29.5,35.5860308 29.5168022,35.4818615 C29.5336043,35.3776923 29.5634146,35.2923077 29.5831978,35.2923077 C29.603252,35.2923077 29.6330623,35.1961077 29.6498645,35.0788462 C29.6666667,34.9613 29.697019,34.8653846 29.7176152,34.8653846 C29.7382114,34.8653846 29.7685637,34.7691846 29.7853659,34.6519231 C29.802168,34.5343769 29.8322493,34.4384615 29.8525745,34.4384615 C29.8726287,34.4384615 29.902439,34.3502308 29.9189702,34.2426462 C29.9352304,34.1350615 29.9785908,34.0021462 30.0149051,33.9475 C30.0514905,33.8928538 30.0813008,33.8125923 30.0813008,33.7693308 C30.0813008,33.7257846 30.1116531,33.6293 30.1487805,33.5544462 C30.1859079,33.4795923 30.2162602,33.3836769 30.2165312,33.3409846 C30.2168022,33.2982923 30.2471545,33.2023769 30.2842818,33.1275231 C30.3214092,33.0526692 30.3517615,32.9539077 30.3520325,32.9080846 C30.3523035,32.8619769 30.3726287,32.7874077 30.39729,32.7418692 C30.4639566,32.6206231 30.8943089,31.2405231 30.8943089,31.1488769 C30.8943089,30.9883538 30.0905149,31.0381615 30.0533875,31.2009615 C30.0371274,31.2726846 30.0084011,31.3526615 29.9899729,31.3788462 C29.9712737,31.4050308 29.9417344,31.5168846 29.9243902,31.6276 C29.9070461,31.7383154 29.8764228,31.8396385 29.8566396,31.8524462 C29.8368564,31.8652538 29.8067751,31.9534846 29.7897019,32.0482615 C29.7728997,32.1430385 29.7411924,32.2554615 29.7195122,32.2978692 C29.6796748,32.3752846 29.4406504,33.1875769 29.4314363,33.2763769 C29.4287263,33.3022769 29.4159892,33.3344385 29.402981,33.3475308 C29.3758808,33.3751385 29.2829268,33.7013077 29.2105691,34.0234923 C29.1829268,34.1473 29.1449864,34.2486231 29.1265583,34.2486231 C29.1081301,34.2486231 29.0794038,34.3448231 29.0626016,34.4620846 C29.0457995,34.5796308 29.0159892,34.6755462 28.996206,34.6755462 C28.9764228,34.6755462 28.9457995,34.7663385 28.9284553,34.8773385 C28.9111111,34.9880538 28.8810298,35.1001923 28.8617886,35.1263769 C28.8425474,35.1522769 28.8124661,35.2644154 28.795122,35.3754154 C28.7552846,35.6287231 28.698103,35.6335615 28.6585366,35.3873692 C28.6417344,35.2832 28.6113821,35.187 28.5907859,35.1736231 C28.5701897,35.1605308 28.5398374,35.0643308 28.5230352,34.9601615 C28.5062331,34.8562769 28.4764228,34.7603615 28.4563686,34.7475538 C28.4365854,34.7347462 28.4059621,34.6439538 28.3886179,34.5457615 C28.3712737,34.4475692 28.3422764,34.3459615 28.3243902,34.3197769 C28.3067751,34.2938769 28.2460705,34.1122923 28.1897019,33.9167615 C28.1336043,33.7209462 28.0701897,33.5262692 28.0487805,33.4838615 C28.0273713,33.4411692 27.995935,33.3290308 27.9791328,33.2342538 C27.9620596,33.1394769 27.9314363,33.0509615 27.9108401,33.0375846 C27.8902439,33.0242077 27.8596206,32.9174769 27.8428184,32.8002154 C27.8262873,32.6832385 27.796206,32.5767923 27.7764228,32.5639846 C27.7566396,32.5511769 27.7268293,32.4552615 27.7100271,32.3513769 C27.6932249,32.2472077 27.6628726,32.1510077 27.6422764,32.1379154 C27.6216802,32.1245385 27.5913279,32.0283385 27.5745257,31.9244538 C27.5577236,31.8202846 27.5273713,31.7240846 27.5067751,31.7109923 C27.4861789,31.6976154 27.4558266,31.6014154 27.4390244,31.4975308 C27.4222222,31.3933615 27.3899729,31.2960231 27.3672087,31.2815077 C27.3447154,31.2667077 27.3260163,31.2132 27.3260163,31.1625385 C27.3260163,31.0780077 27.2915989,31.0706077 26.897019,31.0706077 C26.498103,31.0706077 26.4680217,31.0771538 26.4680217,31.1653846 M33.9655827,33.9167615 L33.9655827,36.7629154 L35.8176152,36.7629154 L37.6693767,36.7629154 L37.6693767,36.3832385 L37.6693767,36.0038462 L36.201355,36.0038462 L34.7336043,36.0038462 L34.7336043,35.0788462 L34.7336043,34.1538462 L36.0208672,34.1538462 L37.3081301,34.1538462 L37.3081301,33.7744538 L37.3081301,33.3947769 L36.0208672,33.3947769 L34.7336043,33.3947769 L34.7336043,32.6120846 L34.7336043,31.8293923 L36.201355,31.8293923 L37.6693767,31.8293923 L37.6693767,31.45 L37.6693767,31.0706077 L35.8176152,31.0706077 L33.9655827,31.0706077 L33.9655827,33.9167615 M61.2574526,33.9048077 L61.2691057,36.7390077 L63.1097561,36.7515308 L64.9504065,36.7637692 L64.9504065,36.3838077 L64.9504065,36.0038462 L63.4823848,36.0038462 L62.0143631,36.0038462 L62.0143631,35.0797 L62.0143631,34.1552692 L63.3130081,34.1427462 L64.6116531,34.1302231 L64.6116531,33.7744538 L64.6116531,33.4186846 L63.3130081,33.4058769 L62.0143631,33.3933538 L62.0143631,32.6115154 L62.0143631,31.8293923 L63.4823848,31.8293923 L64.9504065,31.8293923 L64.9504065,31.45 L64.9504065,31.0706077 L63.098103,31.0706077 L61.2457995,31.0706077 L61.2574526,33.9048077 M67.6604336,31.0965077 C67.6604336,31.1335077 68.000813,31.7932462 68.1420054,32.0300462 C68.2,32.1273846 68.2474255,32.2272846 68.2474255,32.2520462 C68.2474255,32.2768077 68.2728997,32.3257615 68.304065,32.3604846 C68.3349593,32.3954923 68.4108401,32.5252769 68.4723577,32.6485154 C68.5338753,32.7720385 68.598374,32.8730769 68.6157182,32.8730769 C68.6327913,32.8730769 68.6601626,32.9371154 68.6766938,33.0153846 C68.6929539,33.0936538 68.7252033,33.1576923 68.7479675,33.1576923 C68.7707317,33.1576923 68.7894309,33.1881462 68.7894309,33.2254308 C68.7894309,33.2627154 68.8149051,33.3213462 68.8460705,33.3557846 C68.8769648,33.3905077 68.9495935,33.5146 69.0075881,33.6321462 C69.1474255,33.9167615 69.2588076,34.1248154 69.2864499,34.1538462 C69.4455285,34.3214846 69.4669377,34.4965231 69.4669377,35.6281538 L69.4669377,36.7629154 L69.8509485,36.7629154 L70.2349593,36.7629154 L70.2349593,35.6244538 C70.2349593,34.9983 70.2506775,34.4859923 70.2701897,34.4859923 C70.2894309,34.4859923 70.3292683,34.4270769 70.3588076,34.3553538 C70.4181572,34.2096308 70.6666667,33.7394462 70.7262873,33.6597538 C70.7677507,33.6045385 70.9200542,33.3196385 71.1723577,32.8255462 C71.2590786,32.6559154 71.3528455,32.4854308 71.3810298,32.4461538 C71.4094851,32.4068769 71.4831978,32.2682692 71.5449864,32.1379154 C71.6070461,32.0072769 71.6728997,31.8934308 71.6915989,31.8848923 C71.7100271,31.8760692 71.7254743,31.8470385 71.7254743,31.82 C71.7254743,31.7929615 71.796477,31.6478077 71.8834688,31.4975308 C72.1238482,31.0817077 72.1170732,31.0706077 71.6205962,31.0706077 L71.199729,31.0706077 L71.1349593,31.2100692 C70.9783198,31.5487615 70.8403794,31.8106077 70.7880759,31.8683846 C70.7571816,31.9028231 70.7317073,31.9617385 70.7317073,31.9990231 C70.7317073,32.0363077 70.7135501,32.0667615 70.6913279,32.0667615 C70.6693767,32.0667615 70.6371274,32.1251077 70.6200542,32.1965462 C70.602981,32.2679846 70.5753388,32.3374308 70.5588076,32.3508077 C70.5420054,32.3641846 70.4905149,32.4498538 70.4439024,32.5409308 C70.2262873,32.9675692 70.0387534,33.3244769 69.9623306,33.4562538 L69.8785908,33.6008385 L69.8205962,33.4622308 C69.7886179,33.3859538 69.7517615,33.3130923 69.7390244,33.3 C69.7260163,33.2869077 69.6647696,33.1696462 69.602439,33.0390077 C69.5403794,32.9086538 69.4780488,32.7911077 69.4636856,32.7783 C69.4493225,32.7652077 69.3769648,32.6263154 69.30271,32.4697769 C69.1482385,32.1441769 69.0493225,31.9586077 69.0121951,31.9244538 C68.998103,31.9113615 68.9406504,31.8046308 68.8845528,31.6870846 C68.8287263,31.5698231 68.7384824,31.3882385 68.6842818,31.2840692 L68.5856369,31.0942308 L68.1230352,31.0808538 C67.8685637,31.0731692 67.6604336,31.0802846 67.6604336,31.0965077 M82.3395664,33.9167615 L82.3395664,36.7629154 L82.701084,36.7629154 L83.0623306,36.7629154 L83.0674797,34.5927231 C83.0704607,33.3990462 83.0821138,32.4598154 83.0934959,32.5053538 C83.104878,32.5511769 83.1306233,32.5884615 83.1509485,32.5884615 C83.1712737,32.5884615 83.200813,32.6419692 83.2162602,32.7071462 C83.2319783,32.7723231 83.2647696,32.8255462 83.2891599,32.8255462 C83.3132791,32.8255462 83.3333333,32.8460385 83.3333333,32.8708 C83.3333333,32.8955615 83.3943089,33.0105462 83.4688347,33.1266692 C83.5433604,33.2425077 83.604336,33.3512308 83.604336,33.3680231 C83.604336,33.3962 83.7777778,33.6719923 83.8300813,33.7269231 C83.8425474,33.7400154 83.903252,33.8521538 83.9647696,33.9759615 C84.0262873,34.0997692 84.0902439,34.2013769 84.1065041,34.2013769 C84.1230352,34.2013769 84.1493225,34.2546 84.1647696,34.3197769 C84.1804878,34.3852385 84.2132791,34.4384615 84.2376694,34.4384615 C84.2617886,34.4384615 84.2818428,34.4694846 84.2818428,34.5073385 C84.2818428,34.5451923 84.3073171,34.5930077 84.3382114,34.6140692 C84.3693767,34.6348462 84.4455285,34.7586538 84.5075881,34.8890077 C84.5699187,35.0196462 84.6314363,35.1369077 84.6447154,35.15 C84.6579946,35.1630923 84.7579946,35.3338615 84.8669377,35.5293923 C84.9758808,35.7252077 85.0818428,35.8922769 85.102439,35.9011 C85.1230352,35.9096385 85.1401084,35.9378154 85.1401084,35.9637154 C85.1401084,35.9893308 85.198103,36.0997615 85.2693767,36.2087692 C85.3403794,36.3177769 85.4130081,36.4549615 85.4303523,36.5138769 C85.4479675,36.5725077 85.4813008,36.6206077 85.504336,36.6206077 C85.5276423,36.6206077 85.5466125,36.6524846 85.5466125,36.6917615 C85.5466125,36.7501077 85.6268293,36.7629154 85.998103,36.7629154 L86.4498645,36.7629154 L86.4498645,33.9167615 L86.4498645,31.0706077 L86.0886179,31.0706077 L85.7271003,31.0706077 L85.7271003,33.2109154 C85.7271003,35.1081615 85.7195122,35.3446769 85.6593496,35.2923077 C85.6222222,35.2598615 85.5915989,35.2055 85.5915989,35.1713462 C85.5915989,35.1371923 85.5653117,35.0811231 85.5330623,35.0466846 C85.500813,35.0122462 85.3647696,34.7919538 85.2308943,34.5571462 C85.096748,34.3223385 84.9707317,34.1231077 84.9506775,34.1142846 C84.9306233,34.1057462 84.9140921,34.0730154 84.9140921,34.0419923 C84.9140921,34.0109692 84.8430894,33.8720769 84.7560976,33.7334692 C84.6691057,33.5948615 84.598103,33.4619462 84.598103,33.4380385 C84.598103,33.4144154 84.5777778,33.3947769 84.5528455,33.3947769 C84.5279133,33.3947769 84.5075881,33.3643231 84.5075881,33.3270385 C84.5075881,33.2897538 84.4821138,33.2311231 84.4506775,33.1966846 C84.4192412,33.1622462 84.3677507,33.0805615 84.3360434,33.0153846 C84.2626016,32.8645385 84.2127371,32.7771615 83.9769648,32.3869538 C83.8712737,32.2119154 83.7850949,32.0465538 83.7850949,32.0189462 C83.7850949,31.9913385 83.7544715,31.9566154 83.7173442,31.9415308 C83.6799458,31.9264462 83.6495935,31.8962769 83.6495935,31.8743615 C83.6495935,31.8154462 83.3241192,31.2391 83.2804878,31.2206 C83.2598916,31.2120615 83.2430894,31.1747769 83.2430894,31.1377769 C83.2430894,31.0842692 83.1509485,31.0706077 82.7913279,31.0706077 L82.3395664,31.0706077 L82.3395664,33.9167615 M90.2891599,33.9139154 L90.2891599,36.7629154 L91.5536585,36.7629154 C92.3666667,36.7629154 92.8184282,36.7458385 92.8184282,36.7153846 C92.8184282,36.6892 92.8596206,36.6678538 92.9102981,36.6678538 C93.1764228,36.6678538 93.9528455,36.0214923 94.0189702,35.7445615 C94.0346883,35.6785308 94.0642276,35.6244538 94.0842818,35.6244538 C94.104607,35.6244538 94.1352304,35.5550077 94.1525745,35.4701923 C94.1696477,35.3853769 94.203252,35.2906 94.2271003,35.2595769 C94.2509485,35.2285538 94.2818428,35.0364385 94.295664,34.8326538 C94.3097561,34.6288692 94.3363144,34.4407385 94.3547425,34.4148385 C94.404607,34.3445385 94.4116531,33.4918308 94.3628726,33.4269385 C94.3398374,33.3962 94.3100271,33.2083538 94.296206,33.0094077 C94.2826558,32.8104615 94.2517615,32.6078154 94.2276423,32.5588615 C94.203252,32.5099077 94.1303523,32.3482462 94.0653117,32.1993923 C93.9102981,31.8447615 93.50271,31.4115769 93.1566396,31.2334077 L92.8861789,31.0942308 L91.5875339,31.0797154 L90.2891599,31.0652 L90.2891599,33.9139154 M15,31.8649692 C15.1582656,31.9347 15.3723577,32.1558462 15.4382114,32.3180769 C15.503794,32.4786 15.5102981,32.9206077 15.4471545,32.9206077 C15.4222222,32.9206077 15.401897,32.9596 15.401897,33.0071308 C15.401897,33.0546615 15.3563686,33.1349231 15.300271,33.1850154 C15.0501355,33.4098615 15.0116531,33.4175462 14.0582656,33.4343385 L13.1436314,33.4508462 L13.1436314,32.6112308 L13.1436314,31.7719 L14.0130081,31.7926769 C14.4913279,31.8040615 14.9355014,31.8365077 15,31.8649692 M22.2376694,31.9181923 C22.5357724,32.0818462 22.7769648,32.3946385 22.8937669,32.7691923 C23.098374,33.4252308 22.995122,35.3870846 22.7560976,35.3870846 C22.7357724,35.3870846 22.7189702,35.4118462 22.7189702,35.4420154 C22.7189702,35.5205692 22.3807588,35.8475923 22.2579946,35.8877231 C22.201084,35.9065077 22.1403794,35.9449308 22.1230352,35.9733923 C21.9907859,36.1902692 21.102439,35.9944538 20.7647696,35.6742615 C20.1452575,35.0862462 20.1279133,32.7455692 20.7387534,32.1678 C21.1560976,31.7733231 21.7837398,31.6685846 22.2376694,31.9181923 M56.5265583,31.9321385 C56.8512195,32.1515769 56.8880759,32.2227308 56.8880759,32.6322923 C56.8880759,32.9100769 56.8699187,33.0170923 56.8130081,33.0771462 C56.7718157,33.1204077 56.7311653,33.1724923 56.7227642,33.1924154 C56.6501355,33.3651769 56.3899729,33.4152692 55.4764228,33.4329154 L54.5617886,33.4508462 L54.5617886,32.6109462 L54.5617886,31.7710462 L55.4539295,31.7906846 C56.3200542,31.8094692 56.3512195,31.8137385 56.5265583,31.9321385 M77.2788618,31.9227462 C77.6373984,32.1157154 77.9585366,32.5728077 77.9585366,32.8901538 C77.9585366,32.9547615 77.9804878,33.0151 78.0073171,33.0244923 C78.0685637,33.0461231 78.0747967,34.7708923 78.0138211,34.8130154 C77.9910569,34.8286692 77.9598916,34.9254385 77.9444444,35.0276154 C77.9289973,35.1297923 77.898103,35.2259923 77.8758808,35.2410769 C77.8533875,35.2561615 77.8224932,35.3113769 77.8070461,35.3634615 C77.7563686,35.5342308 77.5056911,35.7747308 77.2138211,35.9326923 C77.0157182,36.0399923 76.2650407,36.0704462 76.2059621,35.9733923 C76.1886179,35.9449308 76.1254743,35.9056538 76.0655827,35.8860154 C75.8254743,35.8071769 75.501897,35.3247538 75.4468835,34.9635769 C75.4306233,34.8562769 75.399458,34.7569462 75.3780488,34.743 C75.3300813,34.7119769 75.3249322,33.1406154 75.3726287,33.0905231 C75.3913279,33.0708846 75.4073171,33.0407154 75.4086721,33.0233538 C75.4693767,32.0807077 76.4739837,31.4895615 77.2788618,31.9227462 M92.5677507,31.8732231 C92.5821138,31.8974154 92.6579946,31.9318538 92.7368564,31.9500692 C92.8823848,31.9836538 93.3149051,32.4011846 93.3154472,32.5084846 C93.3157182,32.5395077 93.3485095,32.6288769 93.3886179,32.7071462 C93.4333333,32.7945231 93.4704607,33.0185154 93.4848238,33.2880462 C93.497561,33.5294 93.5257453,33.7269231 93.5471545,33.7269231 C93.598374,33.7269231 93.598103,34.0932231 93.5468835,34.1265231 C93.5252033,34.1404692 93.497561,34.3286 93.4859079,34.5443385 C93.4560976,35.0839692 93.1409214,35.7667615 92.9214092,35.7667615 C92.8894309,35.7667615 92.8636856,35.7829846 92.8636856,35.8029077 C92.8636856,35.9227308 92.400542,36.0038462 91.7170732,36.0038462 L91.0116531,36.0038462 L91.0116531,33.9167615 L91.0116531,31.8293923 L91.7769648,31.8293923 C92.197832,31.8293923 92.5536585,31.8493154 92.5677507,31.8732231 M45.799458,33.0390077 L45.799458,34.0115385 L44.8509485,34.0115385 L43.902439,34.0115385 L43.902439,34.3197769 L43.902439,34.6283 L44.8509485,34.6283 L45.799458,34.6283 L45.799458,35.6480769 L45.799458,36.6678538 L46.0929539,36.6678538 L46.3867209,36.6678538 L46.3867209,35.6480769 L46.3867209,34.6283 L47.3124661,34.6283 L48.2384824,34.6283 L48.2384824,34.3197769 L48.2384824,34.0115385 L47.3124661,34.0115385 L46.3867209,34.0115385 L46.3867209,33.0390077 L46.3867209,32.0667615 L46.0929539,32.0667615 L45.799458,32.0667615 L45.799458,33.0390077 M6.99891599,32.3038462 C7.01924119,32.3038462 7.0495935,32.3997615 7.06639566,32.5173077 C7.08292683,32.6345692 7.11463415,32.7307692 7.13631436,32.7307692 C7.15826558,32.7307692 7.1897019,32.8266846 7.20650407,32.9442308 C7.22330623,33.0614923 7.25365854,33.1576923 7.27425474,33.1576923 C7.29485095,33.1576923 7.32520325,33.2536077 7.34200542,33.3711538 C7.35880759,33.4884154 7.39051491,33.5846154 7.41246612,33.5846154 C7.43468835,33.5846154 7.45257453,33.6219 7.45284553,33.6677231 C7.45311653,33.7132615 7.48075881,33.8060462 7.51436314,33.8737846 C7.54796748,33.9412385 7.58915989,34.0730154 7.60569106,34.1666538 C7.62249322,34.2602923 7.65257453,34.3436846 7.67262873,34.3519385 C7.69268293,34.3604769 7.72222222,34.4367538 7.73794038,34.5215692 L7.76639566,34.6755462 L6.92710027,34.6755462 L6.08753388,34.6755462 L6.11924119,34.4979462 C6.13685637,34.4000385 6.16693767,34.3092462 6.18644986,34.2961538 C6.20596206,34.2830615 6.23631436,34.1817385 6.25420054,34.0707385 C6.27181572,33.9600231 6.30352304,33.8692308 6.32466125,33.8692308 C6.34579946,33.8692308 6.37669377,33.7730308 6.39349593,33.6557692 C6.4102981,33.5382231 6.44065041,33.4423077 6.46124661,33.4423077 C6.48184282,33.4423077 6.51219512,33.3461077 6.52899729,33.2288462 C6.54579946,33.1113 6.57615176,33.0153846 6.59674797,33.0153846 C6.61734417,33.0153846 6.64769648,32.9191846 6.66449864,32.8019231 C6.68130081,32.6843769 6.71138211,32.5884615 6.73143631,32.5884615 C6.75149051,32.5884615 6.78211382,32.5190154 6.79945799,32.4342 C6.8504065,32.1845923 6.92682927,32.0613538 6.94661247,32.1971154 C6.95501355,32.2557462 6.97859079,32.3038462 6.99891599,32.3038462 M14.9750678,34.2628538 C15.2449864,34.3559231 15.4731707,34.5557231 15.5165312,34.7364538 C15.5336043,34.8078923 15.5655827,34.8779077 15.5875339,34.8924231 C15.8062331,35.0341615 15.4371274,35.8029077 15.1089431,35.8894308 C15.0460705,35.9059385 14.9834688,35.9383846 14.9699187,35.9617231 C14.9560976,35.9847769 14.5395664,36.0038462 14.0441734,36.0038462 L13.1436314,36.0038462 L13.1436314,35.0751462 L13.1436314,34.1461615 L13.9452575,34.1652308 C14.5287263,34.1791769 14.8092141,34.2056462 14.9750678,34.2628538 M56.2810298,34.2258538 C56.9203252,34.3997538 57.2051491,34.9288538 56.9536585,35.4753154 C56.7384824,35.9429385 56.5628726,36.0038462 55.4298103,36.0038462 L54.5617886,36.0038462 L54.5617886,35.0788462 L54.5617886,34.1538462 L55.2894309,34.1538462 C55.7929539,34.1538462 56.098103,34.1760462 56.2810298,34.2258538" id="path4" fill="#424143"></path>
        </g>
    </g>
</svg>