
<svg width="19px" height="22px" viewBox="0 0 19 22" version="1.1" xmlns="http://www.w3.org/2000/svg" xmlns:xlink="http://www.w3.org/1999/xlink">
    <!-- Generator: Sketch 46.2 (44496) - http://www.bohemiancoding.com/sketch -->
    <desc>Created with Sketch.</desc>
    <defs></defs>
    <g id="Desktop" stroke="none" stroke-width="1" fill="none" fill-rule="evenodd">
        <g id="Dashboard" transform="translate(-161.000000, -276.000000)" fill="#F1F1F1">
            <g id="Cards" transform="translate(20.000000, 269.000000)">
                <g id="Card-1">
                    <path d="M154.395839,17.8448981 C153.585288,18.6297708 152.418705,18.8542656 151.401266,18.5231958 L147.972723,21.8435199 C147.465775,22.3344521 146.644597,22.3344521 146.137649,21.8435199 C145.631055,21.3532754 145.631055,20.5574014 146.137649,20.0668131 L149.566192,16.7461452 C149.225392,15.7615305 149.456371,14.6311489 150.266921,13.8466201 C151.155763,12.985426 152.475033,12.7990919 153.554113,13.2814293 C153.56049,13.2831482 152.103058,14.7078141 152.103058,14.7078141 L152.279481,15.8942335 L153.508059,16.0675037 C153.508059,16.0675037 154.812096,14.8425798 154.971868,14.6682782 C155.468188,15.7123686 155.283618,16.9850793 154.395839,17.8448981 M159.841547,15.3108218 C159.575142,12.5044638 159.043041,10.1838811 159.043041,10.1838811 C158.990965,9.93944639 158.763529,9.76686379 158.504918,9.77442717 C158.490748,9.77477096 158.476577,9.77442717 158.462052,9.77442717 C155.081689,9.76136315 152.112978,8.66261022 151.077117,7.33592449 C150.999179,7.13102563 150.795479,6.99729131 150.569106,7.00004163 L150.569106,7.00416711 C150.393038,7.00416711 150.229015,7.09355252 150.131947,7.23519401 C149.162334,8.60038422 146.087344,9.76101936 142.569881,9.78130297 C142.561025,9.78095918 142.55146,9.78095918 142.542249,9.78130297 C142.521347,9.78130297 142.5008,9.77305201 142.479899,9.77305201 C142.226602,9.77305201 142.00696,9.94322808 141.955592,10.1825059 C141.955592,10.1825059 141.424908,12.5030886 141.158858,15.3094466 C140.892453,18.1158047 140.836834,21.401406 142.005188,23.523278 C142.881277,25.1129631 144.953353,26.3911745 146.802598,27.3637565 C148.513681,28.263455 149.925059,28.8073308 150.147181,28.8919031 C150.248145,28.9675369 150.373908,29.0056976 150.501442,28.9991656 C150.629685,29.0063852 150.75651,28.9665056 150.857121,28.8891528 L150.859955,28.8891528 C151.090933,28.8011426 152.494163,28.2613922 154.198515,27.3651316 C156.048469,26.3925496 158.11771,25.1143383 158.993445,23.5246532 C160.162153,21.4027811 160.107951,18.1171798 159.841547,15.3108218" id="Preventive-Maintenance-Copy-4"></path>
                </g>
            </g>
        </g>
    </g>
</svg>